%YAML 1.1
%TAG !u! tag:unity3d.com,2011:
--- !u!114 &11400000
MonoBehaviour:
  m_ObjectHideFlags: 0
  m_CorrespondingSourceObject: {fileID: 0}
  m_PrefabInstance: {fileID: 0}
  m_PrefabAsset: {fileID: 0}
  m_GameObject: {fileID: 0}
  m_Enabled: 1
  m_EditorHideFlags: 0
  m_Script: {fileID: 11500000, guid: 3d7b32e102d143668f748fcfcef0353e, type: 3}
  m_Name: "AinoV\xE4\xE4n\xE4nenConfig"
  m_EditorClassIdentifier: 
  serializationData:
    SerializedFormat: 2
    SerializedBytes: 
    ReferencedUnityObjects: []
    SerializedBytesString: 
    Prefab: {fileID: 0}
    PrefabModificationsReferencedUnityObjects: []
    PrefabModifications: []
    SerializationNodes:
    - Name: Name
      Entry: 7
      Data: 0|LangValueData, Assembly-CSharp
    - Name: _eng
      Entry: 1
      Data: "Aino V\xE4\xE4n\xE4nen<br>Love and other Truths"
    - Name: _ru
      Entry: 1
      Data: "\u0410\u0439\u043D\u043E \u0412\u044F\u044F\u043D\u044F\u043D\u0435\u043D<br>Love
        and other Truths"
    - Name: 
      Entry: 8
      Data: 
    - Name: About
      Entry: 7
      Data: 1|OpenArtVirtualGallery.Gallery.Configs.ExhibitorConfig+AboutInfo, Assembly-CSharp
    - Name: _eng
      Entry: 1
      Data: "Aino V\xE4\xE4n\xE4nen is a documentary photographer and a visual storyteller
        from Finland. After years spent abroad she returned to Finland and is currently
        based on the northern island of Hailuoto. V\xE4\xE4n\xE4nen is fascinated
        by the human tapestry and social phenomena. Her recent work includes Dandelions
        - a long-term project on the lives of HIV-at-risk women in Romania as well
        as the documentation of the LGBT+ community in Russia and Ukraine. Last year,
        V\xE4\xE4n\xE4nen started an independent cross-national photo zine We Shall
        See to promote the work of documentary photographers and to build a community
        to support photographers whose work deserves to be seen. \r\n\r\n The work
        exhibited in the Open Art Festival consists of portraits taken from 2016
        onwards of members of the LGBT+ community in Russia and Ukraine as well as
        other documentary photographs. \r\n\r"
    - Name: _ru
      Entry: 1
      Data: "\u0410\u0439\u043D\u043E \u0412\u044F\u0430\u043D\u044F\u043D\u0435\u043D
        - \u0444\u043E\u0442\u043E\u0433\u0440\u0430\u0444\u043A\u0430-\u0434\u043E\u043A\u0443\u043C\u0435\u043D\u0442\u0430\u043B\u0438\u0441\u0442\u043A\u0430
        \u0438 \u0432\u0438\u0437\u0443\u0430\u043B\u044C\u043D\u0430\u044F \u0440\u0430\u0441\u0441\u043A\u0430\u0437\u0447\u0438\u0446\u0430
        \u0438\u0437 \u0424\u0438\u043D\u043B\u044F\u043D\u0434\u0438\u0438. \u041F\u043E\u0441\u043B\u0435
        \u0434\u043E\u043B\u0433\u043E\u0433\u043E \u043F\u0440\u043E\u0436\u0438\u0432\u0430\u043D\u0438\u044F
        \u0437\u0430 \u0433\u0440\u0430\u043D\u0438\u0446\u0435\u0439 \u043E\u043D\u0430
        \u0432\u0435\u0440\u043D\u0443\u043B\u0430\u0441\u044C \u0432 \u0424\u0438\u043D\u043B\u044F\u043D\u0434\u0438\u044E
        \u0438 \u0441\u0435\u0439\u0447\u0430\u0441 \u0436\u0438\u0432\u0435\u0442
        \u043D\u0430 \u0441\u0435\u0432\u0435\u0440\u043D\u043E\u043C \u043E\u0441\u0442\u0440\u043E\u0432\u0435
        \u0425\u0430\u0439\u043B\u0443\u043E\u0442\u043E. \u0412\u044F\u044F\u043D\u044F\u043D\u0435\u043D
        \u043E\u0441\u043E\u0431\u0435\u043D\u043D\u043E \u0438\u043D\u0442\u0435\u0440\u0435\u0441\u0443\u044E\u0442
        \u043B\u044E\u0434\u0438 \u0432\u043E \u0432\u0441\u0451\u043C \u0438\u0445
        \u0440\u0430\u0437\u043D\u043E\u043E\u0431\u0440\u0430\u0437\u0438\u0438
        \u0438 \u0440\u0430\u0437\u043B\u0438\u0447\u043D\u044B\u0435 \u0441\u043E\u0446\u0438\u0430\u043B\u044C\u043D\u044B\u0435
        \u044F\u0432\u043B\u0435\u043D\u0438\u044F. \u0421\u0440\u0435\u0434\u0438
        \u0435\u0451 \u043F\u043E\u0441\u043B\u0435\u0434\u043D\u0438\u0445 \u0440\u0430\u0431\u043E\u0442
        \u201C\u041E\u0434\u0443\u0432\u0430\u043D\u0447\u0438\u043A\u0438\u201D
        - \u0434\u043E\u043B\u0433\u043E\u0441\u0440\u043E\u0447\u043D\u044B\u0439
        \u043F\u0440\u043E\u0435\u043A\u0442 \u043E \u0436\u0438\u0437\u043D\u0438
        \u0440\u0443\u043C\u044B\u043D\u0441\u043A\u0438\u0445 \u0436\u0435\u043D\u0449\u0438\u043D,
        \u043D\u0430\u0445\u043E\u0434\u044F\u0449\u0438\u0445\u0441\u044F \u0432
        \u0433\u0440\u0443\u043F\u043F\u0435 \u0440\u0438\u0441\u043A\u0430 \u043F\u043E
        \u0437\u0430\u0440\u0430\u0436\u0435\u043D\u0438\u044E \u0412\u0418\u0427,
        \u0430 \u0442\u0430\u043A\u0436\u0435 \u0434\u043E\u043A\u0443\u043C\u0435\u043D\u0442\u0430\u043B\u044C\u043D\u044B\u0435
        \u0441\u044A\u0435\u043C\u043A\u0438 \u043F\u0440\u0435\u0434\u0441\u0442\u0430\u0432\u0438\u0442\u0435\u043B\u044C_\u043D\u0438\u0446
        \u041B\u0413\u0411\u0422+ \u0441\u043E\u043E\u0431\u0449\u0435\u0441\u0442\u0432
        \u0420\u043E\u0441\u0441\u0438\u0438 \u0438 \u0423\u043A\u0440\u0430\u0438\u043D\u044B.
        \u0412 \u043F\u0440\u043E\u0448\u043B\u043E\u043C \u0433\u043E\u0434\u0443
        \u0412\u044F\u044F\u043D\u044F\u043D\u0435\u043D \u043D\u0430\u0447\u0430\u043B\u0430
        \u043D\u0435\u0437\u0430\u0432\u0438\u0441\u0438\u043C\u044B\u0439 \u043A\u0440\u043E\u0441\u0441\u043D\u0430\u0446\u0438\u043E\u043D\u0430\u043B\u044C\u043D\u044B\u0439
        \u0444\u043E\u0442\u043E\u043F\u0440\u043E\u0435\u043A\u0442 \u201C\u041C\u044B
        \u0443\u0432\u0438\u0434\u0438\u043C\u201D, \u0446\u0435\u043B\u044C\u044E
        \u043A\u043E\u0442\u043E\u0440\u043E\u0433\u043E \u044F\u0432\u043B\u044F\u0435\u0442\u0441\u044F
        \u043F\u0440\u043E\u0434\u0432\u0438\u0436\u0435\u043D\u0438\u0435 \u0440\u0430\u0431\u043E\u0442
        \u0444\u043E\u0442\u043E\u0433\u0440\u0430\u0444\u043E\u0432-\u0434\u043E\u043A\u0443\u043C\u0435\u043D\u0442\u0430\u043B\u0438\u0441\u0442\u043E\u0432
        \u0438 \u043E\u0441\u043D\u043E\u0432\u0430\u043D\u0438\u0435 \u0441\u043E\u043E\u0431\u0449\u0435\u0441\u0442\u0432\u0430
        \u0444\u043E\u0442\u043E\u0433\u0440\u0430\u0444_\u043E\u043A, \u0447\u044C\u0438
        \u0440\u0430\u0431\u043E\u0442\u044B \u0437\u0430\u0441\u043B\u0443\u0436\u0438\u0432\u0430\u044E\u0442
        \u0432\u043D\u0438\u043C\u0430\u043D\u0438\u044F. \r\n\n\u0420\u0430\u0431\u043E\u0442\u044B,
        \u043F\u0440\u0435\u0434\u0441\u0442\u0430\u0432\u043B\u0435\u043D\u043D\u044B\u0435
        \u043D\u0430 \u0444\u0435\u0441\u0442\u0438\u0432\u0430\u043B\u0435 \u041E\u0442\u043A\u0440\u044B\u0442\u043E\u0435
        \u0438\u0441\u043A\u0443\u0441\u0441\u0442\u0432\u043E, - \u044D\u0442\u043E
        \u043F\u043E\u0440\u0442\u0440\u0435\u0442\u044B \u043F\u0440\u0435\u0434\u0441\u0442\u0430\u0432\u0438\u0442\u0435\u043B\u044C_\u043D\u0438\u0446
        \u041B\u0413\u0411\u0422+ \u0441\u043E\u043E\u0431\u0449\u0435\u0441\u0442\u0432
        \u0420\u043E\u0441\u0441\u0438\u0438 \u0438 \u0423\u043A\u0440\u0430\u0438\u043D\u044B,
        \u0441\u043D\u0438\u043C\u0430\u0435\u043C\u044B\u0435, \u043D\u0430\u0447\u0438\u043D\u0430\u044F
        \u0441 2016 \u0433\u043E\u0434\u0430, \u0430 \u0442\u0430\u043A\u0436\u0435
        \u0434\u043E\u043A\u0443\u043C\u0435\u043D\u0442\u0430\u043B\u044C\u043D\u044B\u0435
        \u0444\u043E\u0442\u043E\u0433\u0440\u0430\u0444\u0438\u0438.\r\n\r"
    - Name: 
      Entry: 8
      Data: 
    - Name: Links
      Entry: 7
      Data: 2|OpenArtVirtualGallery.Gallery.Configs.ExhibitorConfig+LinkData[], Assembly-CSharp
    - Name: 
      Entry: 12
      Data: 1
    - Name: 
      Entry: 7
      Data: OpenArtVirtualGallery.Gallery.Configs.ExhibitorConfig+LinkData, Assembly-CSharp
    - Name: CommentBefore
      Entry: 1
      Data: 'Instagram:'
    - Name: URL
      Entry: 1
      Data: https://www.instagram.com/aino_vaananen/
    - Name: 
      Entry: 8
      Data: 
    - Name: 
      Entry: 13
      Data: 
    - Name: 
      Entry: 8
      Data: 
    - Name: Media
      Entry: 7
      Data: OpenArtVirtualGallery.Gallery.Configs.ExhibitorConfig+MediaData, Assembly-CSharp
    - Name: Audio
      Entry: 7
      Data: 3|UnityEngine.AudioClip[], UnityEngine.AudioModule
    - Name: 
      Entry: 12
      Data: 0
    - Name: 
      Entry: 13
      Data: 
    - Name: 
      Entry: 8
      Data: 
    - Name: Videos
      Entry: 7
      Data: 4|System.String[], mscorlib
    - Name: 
      Entry: 12
      Data: 0
    - Name: 
      Entry: 13
      Data: 
    - Name: 
      Entry: 8
      Data: 
    - Name: ArtVideos
      Entry: 6
      Data: 
    - Name: 
      Entry: 8
      Data: 
