%YAML 1.1
%TAG !u! tag:unity3d.com,2011:
--- !u!114 &11400000
MonoBehaviour:
  m_ObjectHideFlags: 0
  m_CorrespondingSourceObject: {fileID: 0}
  m_PrefabInstance: {fileID: 0}
  m_PrefabAsset: {fileID: 0}
  m_GameObject: {fileID: 0}
  m_Enabled: 1
  m_EditorHideFlags: 0
  m_Script: {fileID: 11500000, guid: 3d7b32e102d143668f748fcfcef0353e, type: 3}
  m_Name: KatyaMikheevaConfig
  m_EditorClassIdentifier: 
  serializationData:
    SerializedFormat: 2
    SerializedBytes: 
    ReferencedUnityObjects: []
    SerializedBytesString: 
    Prefab: {fileID: 0}
    PrefabModificationsReferencedUnityObjects: []
    PrefabModifications: []
    SerializationNodes:
    - Name: Name
      Entry: 7
      Data: 0|LangValueData, Assembly-CSharp
    - Name: _eng
      Entry: 1
      Data: Katya Mikheeva
    - Name: _ru
      Entry: 1
      Data: "\u041A\u0430\u0442\u044F \u041C\u0438\u0445\u0435\u0435\u0432\u0430"
    - Name: 
      Entry: 8
      Data: 
    - Name: About
      Entry: 7
      Data: 1|OpenArtVirtualGallery.Gallery.Configs.ExhibitorConfig+AboutInfo, Assembly-CSharp
    - Name: _eng
      Entry: 1
      Data: "About the artist:\r\n  \r\nMy name is Katya, I work with motion and
        illustration, I create and direct animation. I like to dig deep and get sincerity
        and treasures to give them a visual form later. While working on an animation
        film I create triggers for discussion of an important question for me, contexts
        for conversations, questions, disputes or associations and memories. \r\n\r\n\nAbout
        the cartoon:\r\n\r\nThe main character named Polina descides to tell her
        parents that she\u2019s bisexual. The film is based on a true story. \r\n\u201CPogovorim?\u201D
        (\u201CLet\u2019s talk?\u201D) - is one of the episodes of the documentary
        animated mini-series about the life of LGBT-people in Russia,  on which the
        team illuminator.info has been working for the last two years. In total,
        six episodes are planned, six different characters and six directors who
        will make films in their own manner. You can follow the releases on the project's
        YouTube channel illuminator.info\r\n\r\nDirector, animator and production
        designer - Katya Mikheeva\r\nThe author of the script is Anastasia Patlay\r\nThe
        authors of the idea and producers are Pavel Loparev and Irina Khodyreva\r\nSound
        engineer - Alexey Prosvirnin   \r\nThe operator is Anton Drozdov\r\nKlinap
        \u2013 Katya Mikheeva, Yulia Kashina\r\nActors - Olga Vinnichenko, Alexander
        Topuria, Ekaterina Strogova, Ekaterina Yudina\r\n"
    - Name: _ru
      Entry: 1
      Data: "\u041E\u0431 \u0430\u0432\u0442\u043E\u0440\u043A\u0435:\r\n\r\n\u041C\u0435\u043D\u044F
        \u0437\u043E\u0432\u0443\u0442 \u041A\u0430\u0442\u044F, \u044F \u0440\u0430\u0431\u043E\u0442\u0430\u044E
        \u0441 \u0434\u0432\u0438\u0436\u0435\u043D\u0438\u0435\u043C \u0438 \u0440\u0438\u0441\u0443\u043D\u043A\u043E\u043C,
        \u0434\u0435\u043B\u0430\u044E \u0438 \u0440\u0435\u0436\u0438\u0441\u0441\u0438\u0440\u0443\u044E
        \u0430\u043D\u0438\u043C\u0430\u0446\u0438\u044E. \u042F \u043B\u044E\u0431\u043B\u044E
        \u043A\u043E\u043F\u0430\u0442\u044C \u0433\u043B\u0443\u0431\u043E\u043A\u043E
        \u0438 \u0434\u043E\u0441\u0442\u0430\u0432\u0430\u0442\u044C \u0438\u0441\u043A\u0440\u0435\u043D\u043D\u043E\u0441\u0442\u0438
        \u0438 \u0441\u043E\u043A\u0440\u043E\u0432\u0438\u0449\u0430, \u0447\u0442\u043E\u0431\u044B
        \u043F\u043E\u0442\u043E\u043C \u043F\u0440\u0438\u0434\u0430\u0432\u0430\u0442\u044C
        \u0438\u043C \u0432\u0438\u0437\u0443\u0430\u043B\u044C\u043D\u0443\u044E
        \u0444\u043E\u0440\u043C\u0443. \u0420\u0430\u0431\u043E\u0442\u0430\u044F
        \u043D\u0430\u0434 \u0430\u043D\u0438\u043C\u0430\u0446\u0438\u043E\u043D\u043D\u044B\u043C
        \u0444\u0438\u043B\u044C\u043C\u043E\u043C, \u044F \u0441\u043E\u0437\u0434\u0430\u044E
        \u0442\u0440\u0438\u0433\u0433\u0435\u0440\u044B \u0434\u043B\u044F \u043E\u0431\u0441\u0443\u0436\u0434\u0435\u043D\u0438\u044F
        \u0432\u0430\u0436\u043D\u043E\u0433\u043E \u0434\u043B\u044F \u043C\u0435\u043D\u044F
        \u0432\u043E\u043F\u0440\u043E\u0441\u0430, \u043A\u043E\u043D\u0442\u0435\u043A\u0441\u0442\u044B
        \u0434\u043B\u044F \u0440\u0430\u0437\u0433\u043E\u0432\u043E\u0440\u0430,
        \u0432\u043E\u043F\u0440\u043E\u0441\u043E\u0432, \u0441\u043F\u043E\u0440\u043E\u0432
        \u0438\u043B\u0438 \u0430\u0441\u0441\u043E\u0446\u0438\u0430\u0446\u0438\u0439
        \u0438 \u0432\u043E\u0441\u043F\u043E\u043C\u0438\u043D\u0430\u043D\u0438\u0439.\r\n\r\n\n\u041E
        \u043C\u0443\u043B\u044C\u0442\u0444\u0438\u043B\u044C\u043C\u0435:\r\n \r\n\u0413\u043B\u0430\u0432\u043D\u0430\u044F
        \u0433\u0435\u0440\u043E\u0438\u043D\u044F \u041F\u043E\u043B\u0438\u043D\u0430
        \u0440\u0435\u0448\u0430\u0435\u0442 \u0440\u0430\u0441\u0441\u043A\u0430\u0437\u0430\u0442\u044C
        \u0440\u043E\u0434\u0438\u0442\u0435\u043B\u044F\u043C \u043E \u0441\u0432\u043E\u0435\u0439
        \u0431\u0438\u0441\u0435\u043A\u0441\u0443\u0430\u043B\u044C\u043D\u043E\u0441\u0442\u0438.
        \u0424\u0438\u043B\u044C\u043C \u043E\u0441\u043D\u043E\u0432\u0430\u043D
        \u043D\u0430 \u0440\u0435\u0430\u043B\u044C\u043D\u043E\u0439 \u0438\u0441\u0442\u043E\u0440\u0438\u0438.
        \r\n\u201C\u041F\u043E\u0433\u043E\u0432\u043E\u0440\u0438\u043C?\u201D \u2013
        \u043E\u0434\u0438\u043D \u0438\u0437 \u044D\u043F\u0438\u0437\u043E\u0434\u043E\u0432
        \u0434\u043E\u043A\u0443\u043C\u0435\u043D\u0442\u0430\u043B\u044C\u043D\u043E\u0433\u043E
        \u0430\u043D\u0438\u043C\u0430\u0446\u0438\u043E\u043D\u043D\u043E\u0433\u043E
        \u043C\u0438\u043D\u0438-\u0441\u0435\u0440\u0438\u0430\u043B\u0430 \u043E
        \u0436\u0438\u0437\u043D\u0438 \u041B\u0413\u0411\u0422-\u043B\u044E\u0434\u0435\u0439
        \u0432 \u0420\u043E\u0441\u0441\u0438\u0438, \u043D\u0430\u0434 \u043A\u043E\u0442\u043E\u0440\u044B\u043C
        \u043A\u043E\u043C\u0430\u043D\u0434\u0430 illuminator.info \u0440\u0430\u0431\u043E\u0442\u0430\u0435\u0442
        \u043F\u043E\u0441\u043B\u0435\u0434\u043D\u0438\u0435 \u0434\u0432\u0430
        \u0433\u043E\u0434\u0430. \u0412\u0441\u0435\u0433\u043E \u043F\u043B\u0430\u043D\u0438\u0440\u0443\u0435\u0442\u0441\u044F
        \u0448\u0435\u0441\u0442\u044C \u044D\u043F\u0438\u0437\u043E\u0434\u043E\u0432,
        \u0448\u0435\u0441\u0442\u044C \u0440\u0430\u0437\u043D\u044B\u0445 \u0433\u0435\u0440\u043E\u0435\u0432
        \u0438 \u0448\u0435\u0441\u0442\u044C \u0440\u0435\u0436\u0438\u0441\u0441\u0435\u0440\u043E\u0432,
        \u043A\u043E\u0442\u043E\u0440\u044B\u0435 \u0441\u0434\u0435\u043B\u0430\u044E\u0442
        \u0444\u0438\u043B\u044C\u043C\u044B \u0432 \u0441\u0432\u043E\u0435\u0439
        \u0430\u0432\u0442\u043E\u0440\u0441\u043A\u043E\u0439 \u043C\u0430\u043D\u0435\u0440\u0435.
        \u0421\u043B\u0435\u0434\u0438\u0442\u044C \u0437\u0430 \u0432\u044B\u043F\u0443\u0441\u043A\u0430\u043C\u0438
        \u043C\u043E\u0436\u043D\u043E \u043D\u0430 \u044E\u0442\u0443\u0431-\u043A\u0430\u043D\u0430\u043B\u0435
        \u043F\u0440\u043E\u0435\u043A\u0442\u0430 illuminator.info\r\n\r\n\u0420\u0435\u0436\u0438\u0441\u0441\u0435\u0440,
        \u0430\u043D\u0438\u043C\u0430\u0442\u043E\u0440 \u0438 \u0445\u0443\u0434\u043E\u0436\u043D\u0438\u043A-\u043F\u043E\u0441\u0442\u0430\u043D\u043E\u0432\u0449\u0438\u043A
        \u2013 \u041A\u0430\u0442\u044F \u041C\u0438\u0445\u0435\u0435\u0432\u0430\r\n\u0410\u0432\u0442\u043E\u0440
        \u0441\u0446\u0435\u043D\u0430\u0440\u0438\u044F \u2013 \u0410\u043D\u0430\u0441\u0442\u0430\u0441\u0438\u044F
        \u041F\u0430\u0442\u043B\u0430\u0439\r\n\u0410\u0432\u0442\u043E\u0440\u044B
        \u0438\u0434\u0435\u0438 \u0438 \u043F\u0440\u043E\u0434\u044E\u0441\u0435\u0440\u044B
        \u2013 \u041F\u0430\u0432\u0435\u043B \u041B\u043E\u043F\u0430\u0440\u0435\u0432
        \u0438 \u0418\u0440\u0438\u043D\u0430 \u0425\u043E\u0434\u044B\u0440\u0435\u0432\u0430\r\n\u0417\u0432\u0443\u043A\u043E\u0440\u0435\u0436\u0438\u0441\u0441\u0435\u0440
        \u2013 \u0410\u043B\u0435\u043A\u0441\u0435\u0439 \u041F\u0440\u043E\u0441\u0432\u0438\u0440\u043D\u0438\u043D\r\n\u041E\u043F\u0435\u0440\u0430\u0442\u043E\u0440
        \u2013 \u0410\u043D\u0442\u043E\u043D \u0414\u0440\u043E\u0437\u0434\u043E\u0432\r\n\u041A\u043B\u0438\u043D\u0430\u043F
        \u2013 \u041A\u0430\u0442\u044F \u041C\u0438\u0445\u0435\u0435\u0432\u0430,
        \u042E\u043B\u0438\u044F \u041A\u0430\u0448\u0438\u043D\u0430\r\n\u0410\u043A\u0442\u0435\u0440\u044B
        \u2013 \u041E\u043B\u044C\u0433\u0430 \u0412\u0438\u043D\u043D\u0438\u0447\u0435\u043D\u043A\u043E,
        \u0410\u043B\u0435\u043A\u0441\u0430\u043D\u0434\u0440 \u0422\u043E\u043F\u0443\u0440\u0438\u044F,
        \u0415\u043A\u0430\u0442\u0435\u0440\u0438\u043D\u0430 \u0421\u0442\u0440\u043E\u0433\u043E\u0432\u0430,
        \u0415\u043A\u0430\u0442\u0435\u0440\u0438\u043D\u0430 \u042E\u0434\u0438\u043D\u0430"
    - Name: 
      Entry: 8
      Data: 
    - Name: Links
      Entry: 7
      Data: 2|OpenArtVirtualGallery.Gallery.Configs.ExhibitorConfig+LinkData[], Assembly-CSharp
    - Name: 
      Entry: 12
      Data: 1
    - Name: 
      Entry: 7
      Data: OpenArtVirtualGallery.Gallery.Configs.ExhibitorConfig+LinkData, Assembly-CSharp
    - Name: CommentBefore
      Entry: 6
      Data: 
    - Name: URL
      Entry: 1
      Data: https://www.instagram.com/qshau/
    - Name: 
      Entry: 8
      Data: 
    - Name: 
      Entry: 13
      Data: 
    - Name: 
      Entry: 8
      Data: 
    - Name: Media
      Entry: 7
      Data: OpenArtVirtualGallery.Gallery.Configs.ExhibitorConfig+MediaData, Assembly-CSharp
    - Name: Audio
      Entry: 7
      Data: 3|UnityEngine.AudioClip[], UnityEngine.AudioModule
    - Name: 
      Entry: 12
      Data: 0
    - Name: 
      Entry: 13
      Data: 
    - Name: 
      Entry: 8
      Data: 
    - Name: Videos
      Entry: 7
      Data: 4|System.String[], mscorlib
    - Name: 
      Entry: 12
      Data: 0
    - Name: 
      Entry: 13
      Data: 
    - Name: 
      Entry: 8
      Data: 
    - Name: ArtVideos
      Entry: 7
      Data: 5|OpenArtVirtualGallery.Gallery.Configs.ExhibitorConfig+ArtVideoData[],
        Assembly-CSharp
    - Name: 
      Entry: 12
      Data: 1
    - Name: 
      Entry: 7
      Data: OpenArtVirtualGallery.Gallery.Configs.ExhibitorConfig+ArtVideoData, Assembly-CSharp
    - Name: Info
      Entry: 7
      Data: 6|LangValueData, Assembly-CSharp
    - Name: _eng
      Entry: 1
      Data: "Let\u2019s talk?"
    - Name: _ru
      Entry: 1
      Data: "\u041F\u043E\u0433\u043E\u0432\u043E\u0440\u0438\u043C?"
    - Name: 
      Entry: 8
      Data: 
    - Name: Url
      Entry: 1
      Data: Katya_Miheeva_2020.mp4
    - Name: IsSplashScreen
      Entry: 5
      Data: false
    - Name: 
      Entry: 8
      Data: 
    - Name: 
      Entry: 13
      Data: 
    - Name: 
      Entry: 8
      Data: 
    - Name: 
      Entry: 8
      Data: 
