%YAML 1.1
%TAG !u! tag:unity3d.com,2011:
--- !u!114 &11400000
MonoBehaviour:
  m_ObjectHideFlags: 0
  m_CorrespondingSourceObject: {fileID: 0}
  m_PrefabInstance: {fileID: 0}
  m_PrefabAsset: {fileID: 0}
  m_GameObject: {fileID: 0}
  m_Enabled: 1
  m_EditorHideFlags: 0
  m_Script: {fileID: 11500000, guid: 3d7b32e102d143668f748fcfcef0353e, type: 3}
  m_Name: AnastasiaVaigachevaConfig
  m_EditorClassIdentifier: 
  serializationData:
    SerializedFormat: 2
    SerializedBytes: 
    ReferencedUnityObjects: []
    SerializedBytesString: 
    Prefab: {fileID: 0}
    PrefabModificationsReferencedUnityObjects: []
    PrefabModifications: []
    SerializationNodes:
    - Name: Name
      Entry: 7
      Data: 0|LangValueData, Assembly-CSharp
    - Name: _eng
      Entry: 1
      Data: Anastasia Vaigacheva
    - Name: _ru
      Entry: 1
      Data: "\u0410\u043D\u0430\u0441\u0442\u0430\u0441\u0438\u044F \u0412\u0430\u0439\u0433\u0430\u0447\u0435\u0432\u0430"
    - Name: 
      Entry: 8
      Data: 
    - Name: About
      Entry: 7
      Data: 1|OpenArtVirtualGallery.Gallery.Configs.ExhibitorConfig+AboutInfo, Assembly-CSharp
    - Name: _eng
      Entry: 1
      Data: "About herself:\r\n\r\nI am Anastasia Vaigacheva and I am 2D \u200B\u200Bfreelance
        artist. Prior to university, she was engaged in street art in Arkhangelsk.
        Before university and after, I became interested in digital art - 2D graphics,
        and began to take orders on this theme.\r\n\nAt the moment, I am a freelancer,
        looking for a job as a 2D artist in the office, because I missed the team
        and I want a new cool long-term project in my piggy bank of achievements.\r\n\r\n\r\nAbout
        work:\r\n\r\n  In addition to my orders, I make art for myself. This Queen
        of Hearts is the result of the sublimation of my emotions during a rather
        strange period of my life (this coincided with the beginning of the pandemic
        and self-isolation in 2020).\r\nThe character in armor has its own story.
        This is the Queen of Spades, who becomes the Queen of Hearts.\n\r\nShe arose
        in a world where the end of times came, and was reborn as a warlike (or peacemaking?)
        entity in a place where life forms are looking for their previous history
        before the catastrophe, and are looking for new meanings. The Queen of Spades
        has found meaning in being reborn as the Queen of Hearts, and continues to
        seek and create meanings further.\r\n"
    - Name: _ru
      Entry: 1
      Data: "\u041E \u0441\u0435\u0431\u0435:\r\n\r\n\u042F \u0410\u043D\u0430\u0441\u0442\u0430\u0441\u0438\u044F
        \u0412\u0430\u0439\u0433\u0430\u0447\u0435\u0432\u0430, 2D \u0445\u0443\u0434\u043E\u0436\u043D\u0438\u043A-\u0444\u0440\u0438\u043B\u0430\u043D\u0441\u0435\u0440.
        \u0414\u043E \u0443\u043D\u0438\u0432\u0435\u0440\u0441\u0438\u0442\u0435\u0442\u0430
        \u0437\u0430\u043D\u0438\u043C\u0430\u043B\u0430\u0441\u044C \u0441\u0442\u0440\u0438\u0442-\u0430\u0440\u0442\u043E\u043C
        \u0432 \u0410\u0440\u0445\u0430\u043D\u0433\u0435\u043B\u044C\u0441\u043A\u0435.
        \u0412\u043E \u0432\u0440\u0435\u043C\u044F \u0443\u0447\u0435\u0431\u044B
        \u0432 \u0443\u043D\u0438\u0432\u0435\u0440\u0441\u0438\u0442\u0435\u0442\u0435
        \u0443\u0432\u043B\u0435\u043A\u043B\u0430\u0441\u044C \u0446\u0438\u0444\u0440\u043E\u0432\u044B\u043C
        \u0438\u0441\u043A\u0443\u0441\u0441\u0442\u0432\u043E\u043C - 2D \u0433\u0440\u0430\u0444\u0438\u043A\u043E\u0439
        - \u0438 \u043D\u0430\u0447\u0430\u043B\u0430 \u0431\u0440\u0430\u0442\u044C
        \u0437\u0430\u043A\u0430\u0437\u044B \u043D\u0430 \u044D\u0442\u0443 \u0442\u0435\u043C\u0443.\r\n\u0412
        \u0434\u0430\u043D\u043D\u044B\u0439 \u043C\u043E\u043C\u0435\u043D\u0442
        \u0444\u0440\u0438\u043B\u0430\u043D\u0441\u0435\u0440, \u0432 \u043F\u043E\u0438\u0441\u043A\u0430\u0445
        \u0432\u0430\u043A\u0430\u043D\u0441\u0438\u0438 2D \u0445\u0443\u0434\u043E\u0436\u043D\u0438\u043A\u043E\u043C
        \u0432 \u043E\u0444\u0438\u0441, \u0442\u0430\u043A \u043A\u0430\u043A \u0441\u043E\u0441\u043A\u0443\u0447\u0438\u043B\u0430\u0441\u044C
        \u043F\u043E \u043A\u043E\u043C\u0430\u043D\u0434\u0435 \u0438 \u0445\u043E\u0447\u0443
        \u043D\u043E\u0432\u044B\u0439 \u043A\u0440\u0443\u0442\u043E\u0439 \u0434\u043B\u0438\u0442\u0435\u043B\u044C\u043D\u044B\u0439
        \u043F\u0440\u043E\u0435\u043A\u0442 \u0432 \u0441\u0432\u043E\u044E \u043A\u043E\u043F\u0438\u043B\u043A\u0443
        \u0434\u043E\u0441\u0442\u0438\u0436\u0435\u043D\u0438\u0439. \r\n\r\n\n\u041E
        \u0440\u0430\u0431\u043E\u0442\u0435:\r\n\r\n  \u041F\u043E\u043C\u0438\u043C\u043E
        \u0441\u0432\u043E\u0438\u0445 \u0437\u0430\u043A\u0430\u0437\u043E\u0432
        \u044F \u0434\u0435\u043B\u0430\u044E \u0430\u0440\u0442 \u0438 \u0434\u043B\u044F
        \u0441\u0435\u0431\u044F. \u042D\u0442\u0430 \u0414\u0430\u043C\u0430 \u0427\u0435\u0440\u0432\u0435\u0439
        - \u0440\u0435\u0437\u0443\u043B\u044C\u0442\u0430\u0442 \u0441\u0443\u0431\u043B\u0438\u043C\u0430\u0446\u0438\u0438
        \u043C\u043E\u0438\u0445 \u044D\u043C\u043E\u0446\u0438\u0439 \u0432 \u0434\u043E\u0432\u043E\u043B\u044C\u043D\u043E
        \u0441\u0442\u0440\u0430\u043D\u043D\u044B\u0439 \u043F\u0435\u0440\u0438\u043E\u0434
        \u043C\u043E\u0435\u0439 \u0436\u0438\u0437\u043D\u0438 (\u044D\u0442\u043E
        \u0441\u043E\u0432\u043F\u0430\u043B\u043E \u0441 \u043D\u0430\u0447\u0430\u043B\u043E\u043C
        \u043F\u0430\u043D\u0434\u0435\u043C\u0438\u0438 \u0438 \u0441\u0430\u043C\u043E\u0438\u0437\u043E\u043B\u044F\u0446\u0438\u0438
        \u0432 2020 \u0433\u043E\u0434\u0443).\r\n\n\u041F\u0435\u0440\u0441\u043E\u043D\u0430\u0436
        \u0432 \u0434\u043E\u0441\u043F\u0435\u0445\u0430\u0445 \u0438\u043C\u0435\u0435\u0442
        \u0441\u0432\u043E\u044E \u0438\u0441\u0442\u043E\u0440\u0438\u044E. \u042D\u0442\u043E
        \u0414\u0430\u043C\u0430 \u041F\u0438\u043A, \u043A\u043E\u0442\u043E\u0440\u0430\u044F
        \u0441\u0442\u0430\u043D\u043E\u0432\u0438\u0442\u0441\u044F \u0414\u0430\u043C\u043E\u0439
        \u0427\u0435\u0440\u0432\u0435\u0439. \u041E\u043D\u0430 \u0432\u043E\u0437\u043D\u0438\u043A\u043B\u0430
        \u0432 \u043C\u0438\u0440\u0435, \u0433\u0434\u0435 \u043D\u0430\u0441\u0442\u0430\u043B
        \u043A\u043E\u043D\u0435\u0446 \u0432\u0440\u0435\u043C\u0435\u043D \u0438
        \u043F\u0435\u0440\u0435\u0440\u043E\u0434\u0438\u043B\u0430\u0441\u044C
        \u0432\u043E\u0438\u043D\u0441\u0442\u0432\u0435\u043D\u043D\u043E\u0439
        (\u0438\u043B\u0438 \u043C\u0438\u0440\u043E\u0442\u0432\u043E\u0440\u0447\u0435\u0441\u043A\u043E\u0439?)
        \u0441\u0443\u0449\u043D\u043E\u0441\u0442\u044C\u044E \u0432 \u043C\u0435\u0441\u0442\u0435,
        \u0433\u0434\u0435 \u0444\u043E\u0440\u043C\u044B \u0436\u0438\u0437\u043D\u0438
        \u0438\u0449\u0443\u0442 \u0441\u0432\u043E\u044E \u043F\u0440\u0435\u0436\u043D\u044E\u044E
        \u0438\u0441\u0442\u043E\u0440\u0438\u044E \u0434\u043E \u043A\u0430\u0442\u0430\u0441\u0442\u0440\u043E\u0444\u044B
        \u0438 \u0438\u0449\u0443\u0442 \u043D\u043E\u0432\u044B\u0435 \u0441\u043C\u044B\u0441\u043B\u044B.
        \u0414\u0430\u043C\u0430 \u041F\u0438\u043A \u043D\u0430\u0448\u043B\u0430
        \u0441\u043C\u044B\u0441\u043B \u0432 \u0442\u043E\u043C, \u0447\u0442\u043E\u0431\u044B
        \u043F\u0435\u0440\u0435\u0440\u043E\u0434\u0438\u0442\u044C\u0441\u044F
        \u0414\u0430\u043C\u043E\u0439 \u0427\u0435\u0440\u0432\u0435\u0439 \u0438
        \u043F\u0440\u043E\u0434\u043E\u043B\u0436\u0430\u0435\u0442 \u0438\u0441\u043A\u0430\u0442\u044C
        \u0438 \u0441\u043E\u0437\u0434\u0430\u0432\u0430\u0442\u044C \u0441\u043C\u044B\u0441\u043B\u044B
        \u0434\u0430\u043B\u044C\u0448\u0435.\r\n"
    - Name: 
      Entry: 8
      Data: 
    - Name: Links
      Entry: 7
      Data: 2|OpenArtVirtualGallery.Gallery.Configs.ExhibitorConfig+LinkData[], Assembly-CSharp
    - Name: 
      Entry: 12
      Data: 1
    - Name: 
      Entry: 7
      Data: OpenArtVirtualGallery.Gallery.Configs.ExhibitorConfig+LinkData, Assembly-CSharp
    - Name: CommentBefore
      Entry: 6
      Data: 
    - Name: URL
      Entry: 1
      Data: https://www.instagram.com/vaigacheva_art/
    - Name: 
      Entry: 8
      Data: 
    - Name: 
      Entry: 13
      Data: 
    - Name: 
      Entry: 8
      Data: 
    - Name: Media
      Entry: 7
      Data: OpenArtVirtualGallery.Gallery.Configs.ExhibitorConfig+MediaData, Assembly-CSharp
    - Name: Audio
      Entry: 7
      Data: 3|UnityEngine.AudioClip[], UnityEngine.AudioModule
    - Name: 
      Entry: 12
      Data: 0
    - Name: 
      Entry: 13
      Data: 
    - Name: 
      Entry: 8
      Data: 
    - Name: Videos
      Entry: 7
      Data: 4|System.String[], mscorlib
    - Name: 
      Entry: 12
      Data: 0
    - Name: 
      Entry: 13
      Data: 
    - Name: 
      Entry: 8
      Data: 
    - Name: ArtVideos
      Entry: 6
      Data: 
    - Name: 
      Entry: 8
      Data: 
