%YAML 1.1
%TAG !u! tag:unity3d.com,2011:
--- !u!114 &11400000
MonoBehaviour:
  m_ObjectHideFlags: 0
  m_CorrespondingSourceObject: {fileID: 0}
  m_PrefabInstance: {fileID: 0}
  m_PrefabAsset: {fileID: 0}
  m_GameObject: {fileID: 0}
  m_Enabled: 1
  m_EditorHideFlags: 0
  m_Script: {fileID: 11500000, guid: 3d7b32e102d143668f748fcfcef0353e, type: 3}
  m_Name: DariaDrobushevskayaConfig
  m_EditorClassIdentifier: 
  serializationData:
    SerializedFormat: 2
    SerializedBytes: 
    ReferencedUnityObjects: []
    SerializedBytesString: 
    Prefab: {fileID: 0}
    PrefabModificationsReferencedUnityObjects: []
    PrefabModifications: []
    SerializationNodes:
    - Name: Name
      Entry: 7
      Data: 0|LangValueData, Assembly-CSharp
    - Name: _eng
      Entry: 1
      Data: Daria Drobushevskaya
    - Name: _ru
      Entry: 1
      Data: "\u0414\u0430\u0440\u044C\u044F \u0414\u0440\u043E\u0431\u0443\u0448\u0435\u0432\u0441\u043A\u0430\u044F"
    - Name: 
      Entry: 8
      Data: 
    - Name: About
      Entry: 7
      Data: 1|OpenArtVirtualGallery.Gallery.Configs.ExhibitorConfig+AboutInfo, Assembly-CSharp
    - Name: _eng
      Entry: 1
      Data: "Daria Drobushevskaya\r\nMurmansk\r\n\r\nArtist, fem-activist of a local
        community \"Fire\", organizer of the international festival \"NOT GUILTY\"
        in Murmansk.\r\n\r\nZine \u201Ckitchen\u201D\r\n\r\nThis work has absorbed
        all my feelings about what it's like to be a woman in an insecure world,
        what it's like to be someone vulnerable. There are different stories about
        violence - physical and moral, on the pages of the book. These stories were
        told to me by friends, relatives, experienced by myself, and heard in the
        news.\r\nA terrible thought that I recently realized - these stories stopped
        touching me. They were woven into my reality as a normal phenomenon, as something
        that I can calmly discuss with my friends over tea, and then return to a
        simple conversation about nothing. This thought scared me. Violence cannot
        and should not be normal, fuck violence\r\n"
    - Name: _ru
      Entry: 1
      Data: "\u0414\u0430\u0440\u044C\u044F \u0414\u0440\u043E\u0431\u0443\u0448\u0435\u0432\u0441\u043A\u0430\u044F\r\n\u041C\u0443\u0440\u043C\u0430\u043D\u0441\u043A\r\n\n\u0425\u0443\u0434\u043E\u0436\u043D\u0438\u0446\u0430,
        \u0437\u0430\u043D\u0438\u043C\u0430\u043B\u0430\u0441\u044C \u0444\u0435\u043C-\u0430\u043A\u0442\u0438\u0432\u0438\u0437\u043C\u043E\u043C
        \u0432 \u043C\u0435\u0441\u0442\u043D\u043E\u0439 \u043E\u0440\u0433\u0430\u043D\u0438\u0437\u0430\u0446\u0438\u0438
        \"\u041A\u043E\u0441\u0442\u0451\u0440\", \u043E\u0440\u0433\u0430\u043D\u0438\u0437\u0430\u0442\u043E\u0440\u043A\u0430
        \u043C\u0435\u0436\u0434\u0443\u043D\u0430\u0440\u043E\u0434\u043D\u043E\u0433\u043E
        \u0444\u0435\u0441\u0442\u0438\u0432\u0430\u043B\u044F \"\u041D\u0415 \u0412\u0418\u041D\u041E\u0412\u0410\u0422\u0410
        2020\" \u0432 \u041C\u0443\u0440\u043C\u0430\u043D\u0441\u043A\u0435.\r\n
        \r\n\u0417\u0438\u043D \"\u043A\u0443\u0445\u043D\u044F\"\r\n \r\n\u0417\u0438\u043D
        \u043F\u0440\u043E \u043F\u0440\u043E\u0441\u0442\u044B\u0445 \u0436\u0435\u043D\u0449\u0438\u043D,
        \u043A\u043E\u0442\u043E\u0440\u044B\u0435 \u043F\u0435\u0440\u0435\u0436\u0438\u043B\u0438
        \u043C\u043D\u043E\u0433\u043E \u043F\u043B\u043E\u0445\u043E\u0433\u043E
        \u0432 \u0436\u0438\u0437\u043D\u0438, \u043D\u043E \u0442\u0430\u043A \u0438\u043B\u0438
        \u0438\u043D\u0430\u0447\u0435 \u043F\u0440\u043E\u0434\u043E\u043B\u0436\u0430\u044E\u0442
        \u044D\u0442\u043E\u0439 \u0436\u0438\u0437\u043D\u044C\u044E \u043D\u0430\u0441\u043B\u0430\u0436\u0434\u0430\u0442\u044C\u0441\u044F.
        \u0441\u0430\u043C\u044B\u0435 \u0431\u043B\u0438\u0437\u043A\u0438\u0435
        \u0438 \u0432\u0430\u0436\u043D\u044B\u0435, \u043E \u043A\u043E\u043C \u044F
        \u043C\u043E\u0433\u0443 \u043D\u0430\u043F\u0438\u0441\u0430\u0442\u044C
        - \u044D\u0442\u043E \u043C\u043E\u0438 \u0431\u0430\u0431\u0443\u0448\u043A\u0438,
        \u044F \u0437\u043D\u0430\u044E \u043C\u043D\u043E\u0433\u043E \u0438\u0441\u0442\u043E\u0440\u0438\u0439,
        \u043A\u043E\u0442\u043E\u0440\u044B\u0435 \u0441\u043B\u0443\u0447\u0438\u043B\u0438\u0441\u044C
        \u0441 \u043D\u0438\u043C\u0438 \u043F\u0440\u043E\u0441\u0442\u043E \u043F\u043E\u0442\u043E\u043C\u0443
        \u0447\u0442\u043E \u043E\u043D\u0438 \u0436\u0435\u043D\u0449\u0438\u043D\u044B.\r\n"
    - Name: 
      Entry: 8
      Data: 
    - Name: Links
      Entry: 7
      Data: 2|OpenArtVirtualGallery.Gallery.Configs.ExhibitorConfig+LinkData[], Assembly-CSharp
    - Name: 
      Entry: 12
      Data: 1
    - Name: 
      Entry: 7
      Data: OpenArtVirtualGallery.Gallery.Configs.ExhibitorConfig+LinkData, Assembly-CSharp
    - Name: CommentBefore
      Entry: 6
      Data: 
    - Name: URL
      Entry: 1
      Data: https://www.instagram.com/electr.ophor.esis/
    - Name: 
      Entry: 8
      Data: 
    - Name: 
      Entry: 13
      Data: 
    - Name: 
      Entry: 8
      Data: 
    - Name: Media
      Entry: 7
      Data: OpenArtVirtualGallery.Gallery.Configs.ExhibitorConfig+MediaData, Assembly-CSharp
    - Name: Audio
      Entry: 7
      Data: 3|UnityEngine.AudioClip[], UnityEngine.AudioModule
    - Name: 
      Entry: 12
      Data: 0
    - Name: 
      Entry: 13
      Data: 
    - Name: 
      Entry: 8
      Data: 
    - Name: Videos
      Entry: 7
      Data: 4|System.String[], mscorlib
    - Name: 
      Entry: 12
      Data: 0
    - Name: 
      Entry: 13
      Data: 
    - Name: 
      Entry: 8
      Data: 
    - Name: ArtVideos
      Entry: 6
      Data: 
    - Name: 
      Entry: 8
      Data: 
