%YAML 1.1
%TAG !u! tag:unity3d.com,2011:
--- !u!114 &11400000
MonoBehaviour:
  m_ObjectHideFlags: 0
  m_CorrespondingSourceObject: {fileID: 0}
  m_PrefabInstance: {fileID: 0}
  m_PrefabAsset: {fileID: 0}
  m_GameObject: {fileID: 0}
  m_Enabled: 1
  m_EditorHideFlags: 0
  m_Script: {fileID: 11500000, guid: 3d7b32e102d143668f748fcfcef0353e, type: 3}
  m_Name: MiliyollieConfig
  m_EditorClassIdentifier: 
  serializationData:
    SerializedFormat: 2
    SerializedBytes: 
    ReferencedUnityObjects: []
    SerializedBytesString: 
    Prefab: {fileID: 0}
    PrefabModificationsReferencedUnityObjects: []
    PrefabModifications: []
    SerializationNodes:
    - Name: Name
      Entry: 7
      Data: 0|LangValueData, Assembly-CSharp
    - Name: _eng
      Entry: 1
      Data: sweet oli / miliyollie
    - Name: _ru
      Entry: 1
      Data: "\u043C\u0438\u043B\u0430\u044F \u043E\u043B\u0438"
    - Name: 
      Entry: 8
      Data: 
    - Name: About
      Entry: 7
      Data: 1|OpenArtVirtualGallery.Gallery.Configs.ExhibitorConfig+AboutInfo, Assembly-CSharp
    - Name: _eng
      Entry: 1
      Data: "About himself:\r\n\r\nWhat is important for me as an activist and artist
        is the issue of inclusion in a broad sense, diversity, media representation.
        When I was growing up, I did not see anyone like me in the media: in ads,
        in magazines, on TV. I saw only thin, healthy, cishetero people of conventional
        appearance. Now that I have grown up, I want to photograph people of different
        looks to show how different we are and how cool all this variety is.\r\nIn
        my works I do not use cosmetic retouching, and I believe that the ability
        to see the same people at exhibitions and in the media as we see them on
        the streets will help us all with the acceptance of our appearance and in
        the fight against lookism.\r\n\r\n\r\nAbout the photography project:\r\n\r\nSweet
        Oli is a body-positive activist and photographer, as well as a non-binary
        queer artist. Such words are not empty phrases, because Oli\u2019s photography
        is a work at the intersection of activism and craft, the connection between
        personal experience and views, reflected in photography.\r\n\nAs the artist
        herself says, \u201CIt is important for me that my photos represent people
        who have no place in mainstream magazines and mainstream discourse. I am
        not interested in photographing people of conventional appearance, I want
        to provide visibility to different people and their stories\u201D. That\u2019s
        why, when making photos, Oli prefers photographing people of different appearance,
        size, gender, orientation, trying to shoot them as real as possible and does
        not use cosmetic retouching. Artist hopes that such a photo will become our
        future and more and more people will be inspired by themselves, and not by
        retouched magazine pictures, and invites you to look at his photos taken
        in the last 4 years\r\n"
    - Name: _ru
      Entry: 1
      Data: "\u041E \u0441\u0435\u0431\u0435:\r\n\r\n\u0414\u043B\u044F \u043C\u0435\u043D\u044F,
        \u043A\u0430\u043A \u0430\u043A\u0442\u0438\u0432\u0438\u0441\u0442\u043A\u0438
        \u0438 \u0430\u0440\u0442\u0438\u0441\u0442\u0430, \u0432\u0430\u0436\u0435\u043D
        \u0432\u043E\u043F\u0440\u043E\u0441 \u0438\u043D\u043A\u043B\u044E\u0437\u0438\u0438
        \u0432 \u0448\u0438\u0440\u043E\u043A\u043E\u043C \u0441\u043C\u044B\u0441\u043B\u0435,
        diversity, \u0440\u0435\u043F\u0440\u0435\u0437\u0435\u043D\u0442\u0430\u0446\u0438\u0438
        \u0432 \u043C\u0435\u0434\u0438\u0430. \u041A\u043E\u0433\u0434\u0430 \u044F
        \u0440\u043E\u0441\u043B\u0430, \u044F \u043D\u0435 \u0432\u0438\u0434\u0435\u043B\u0430
        \u043D\u0438\u043A\u043E\u0433\u043E, \u043F\u043E\u0445\u043E\u0436\u0435\u0433\u043E
        \u043D\u0430 \u043C\u0435\u043D\u044F \u0432 \u043C\u0435\u0434\u0438\u0430:
        \u0432 \u0440\u0435\u043A\u043B\u0430\u043C\u0435, \u0432 \u0436\u0443\u0440\u043D\u0430\u043B\u0430\u0445,
        \u043F\u043E \u0442\u0435\u043B\u0435\u0432\u0438\u0437\u043E\u0440\u0443
        \u044F \u0432\u0438\u0434\u0435\u043B\u0430 \u0442\u043E\u043B\u044C\u043A\u043E
        \u0445\u0443\u0434\u044B\u0445, \u0437\u0434\u043E\u0440\u043E\u0432\u044B\u0445,
        \u0446\u0438\u0441\u0433\u0435\u0442\u0435\u0440\u043E \u043B\u044E\u0434\u0435\u0439
        \u043A\u043E\u043D\u0432\u0435\u043D\u0446\u0438\u043E\u043D\u0430\u043B\u044C\u043D\u043E\u0439
        \u0432\u043D\u0435\u0448\u043D\u043E\u0441\u0442\u0438. \u0421\u0435\u0439\u0447\u0430\u0441,
        \u043A\u043E\u0433\u0434\u0430 \u044F \u0432\u044B\u0440\u043E\u0441\u043B\u0430,
        \u044F \u0445\u043E\u0447\u0443 \u0444\u043E\u0442\u043E\u0433\u0440\u0430\u0444\u0438\u0440\u043E\u0432\u0430\u0442\u044C
        \u043B\u044E\u0434\u0435\u0439 \u0440\u0430\u0437\u043B\u0438\u0447\u043D\u043E\u0439
        \u0432\u043D\u0435\u0448\u043D\u043E\u0441\u0442\u0438, \u0447\u0442\u043E\u0431\u044B
        \u043F\u043E\u043A\u0430\u0437\u0430\u0442\u044C, \u043A\u0430\u043A\u0438\u0435
        \u043C\u044B \u0432\u0441\u0435 \u0440\u0430\u0437\u043D\u044B\u0435 \u0438
        \u043A\u0430\u043A \u044D\u0442\u043E \u043A\u043B\u0430\u0441\u0441\u043D\u043E
        \u0438 \u0437\u0434\u043E\u0440\u043E\u0432\u043E.\r\n\n\u0412 \u0441\u0432\u043E\u0438\u0445
        \u0440\u0430\u0431\u043E\u0442\u0430\u0445 \u044F \u043D\u0435 \u0438\u0441\u043F\u043E\u043B\u044C\u0437\u0443\u044E
        \u043A\u043E\u0441\u043C\u0435\u0442\u0438\u0447\u0435\u0441\u043A\u0443\u044E
        \u0440\u0435\u0442\u0443\u0448\u044C, \u0438 \u0441\u0447\u0438\u0442\u0430\u044E,
        \u0447\u0442\u043E \u0432\u043E\u0437\u043C\u043E\u0436\u043D\u043E\u0441\u0442\u044C
        \u0432\u0438\u0434\u0435\u0442\u044C \u043D\u0430 \u0432\u044B\u0441\u0442\u0430\u0432\u043A\u0430\u0445
        \u0438 \u0432 \u043C\u0435\u0434\u0438\u0430 \u0442\u0430\u043A\u0438\u0445
        \u0436\u0435 \u043B\u044E\u0434\u0435\u0439, \u043A\u043E\u0442\u043E\u0440\u044B\u0445
        \u043C\u044B \u0432\u0438\u0434\u0438\u043C \u043D\u0430 \u0443\u043B\u0438\u0446\u0435,
        \u043F\u043E\u043C\u043E\u0436\u0435\u0442 \u043D\u0430\u043C \u0432\u0441\u0435\u043C
        \u0441 \u043F\u0440\u0438\u043D\u044F\u0442\u0438\u0435\u043C \u0441\u0432\u043E\u0435\u0439
        \u0432\u043D\u0435\u0448\u043D\u043E\u0441\u0442\u0438 \u0438 \u0432 \u0431\u043E\u0440\u044C\u0431\u0435
        \u0441 \u043B\u0443\u043A\u0438\u0437\u043C\u043E\u043C.\r\n\r\n\n\u041E
        \u0444\u043E\u0442\u043E\u043F\u0440\u043E\u0435\u043A\u0442\u0435:\r\n\r\n\u041C\u0438\u043B\u0430\u044F
        \u041E\u043B\u0438 - \u0431\u043E\u0434\u0438\u043F\u043E\u0437\u0438\u0442\u0438\u0432\u043D\u0430\u044F
        \u0430\u043A\u0442\u0438\u0432\u0438\u0441\u0442\u043A\u0430 \u0438 \u0444\u043E\u0442\u043E\u0433\u0440\u0430\u0444\u0438\u043D\u044F,
        \u0430 \u0442\u0430\u043A\u0436\u0435 \u043D\u0435\u0431\u0438\u043D\u0430\u0440\u043D\u044B\u0439
        \u043A\u0432\u0438\u0440 \u0430\u0440\u0442\u0438\u0441\u0442. \u041F\u043E\u0434\u043E\u0431\u043D\u044B\u0435
        \u0441\u043B\u043E\u0432\u0430 \u043D\u0435 \u043F\u0443\u0441\u0442\u043E\u0439
        \u0437\u0432\u0443\u043A, \u0442\u0430\u043A \u043A\u0430\u043A \u0444\u043E\u0442\u043E\u0433\u0440\u0430\u0444\u0438\u0438
        \u041E\u043B\u0438 - \u044D\u0442\u043E \u0440\u0430\u0431\u043E\u0442\u0430
        \u043D\u0430 \u0441\u0442\u044B\u043A\u0435 \u0430\u043A\u0442\u0438\u0432\u0438\u0437\u043C\u0430
        \u0438 \u0440\u0435\u043C\u0435\u0441\u043B\u0430, \u0441\u0432\u044F\u0437\u044C
        \u043B\u0438\u0447\u043D\u043E\u0433\u043E \u043E\u043F\u044B\u0442\u0430
        \u0438 \u0432\u0437\u0433\u043B\u044F\u0434\u043E\u0432, \u043E\u0442\u0440\u0430\u0436\u0435\u043D\u043D\u044B\u0435
        \u0432 \u0444\u043E\u0442\u043E\u0433\u0440\u0430\u0444\u0438\u0438.\r\n\n\u041A\u0430\u043A
        \u0433\u043E\u0432\u043E\u0440\u0438\u0442 \u0441\u0430\u043C \u0430\u0440\u0442\u0438\u0441\u0442,
        \xAB\u043C\u043D\u0435 \u0432\u0430\u0436\u043D\u043E, \u0447\u0442\u043E\u0431\u044B
        \u0432 \u043C\u043E\u0438\u0445 \u0444\u043E\u0442\u043E\u0433\u0440\u0430\u0444\u0438\u044F\u0445
        \u0431\u044B\u043B\u0438 \u043F\u0440\u0435\u0434\u0441\u0442\u0430\u0432\u043B\u0435\u043D\u044B
        \u043B\u044E\u0434\u0438, \u043A\u043E\u0442\u043E\u0440\u044B\u043C \u043D\u0435\u0442
        \u043C\u0435\u0441\u0442\u0430 \u0432 \u043C\u0435\u0439\u043D\u0441\u0442\u0440\u0438\u043C\u043D\u044B\u0445
        \u0436\u0443\u0440\u043D\u0430\u043B\u0430\u0445 \u0438 \u043C\u0435\u0439\u043D\u0441\u0442\u0440\u0438\u043C\u043D\u043E\u043C
        \u0434\u0438\u0441\u043A\u0443\u0440\u0441\u0435. \u041C\u043D\u0435 \u043D\u0435\u0438\u043D\u0442\u0435\u0440\u0435\u0441\u043D\u043E
        \u0444\u043E\u0442\u043E\u0433\u0440\u0430\u0444\u0438\u0440\u043E\u0432\u0430\u0442\u044C
        \u043B\u044E\u0434\u0435\u0439 \u043A\u043E\u043D\u0432\u0435\u043D\u0446\u0438\u043E\u043D\u0430\u043B\u044C\u043D\u043E\u0439
        \u0432\u043D\u0435\u0448\u043D\u043E\u0441\u0442\u0438, \u044F \u0445\u043E\u0447\u0443
        \u043F\u0440\u0435\u0434\u043E\u0441\u0442\u0430\u0432\u0438\u0442\u044C
        \u0432\u0438\u0434\u0438\u043C\u043E\u0441\u0442\u044C \u0440\u0430\u0437\u043D\u044B\u043C
        \u043B\u044E\u0434\u044F\u043C \u0438 \u0438\u0445 \u0438\u0441\u0442\u043E\u0440\u0438\u044F\u043C\xBB.
        \u041F\u043E\u044D\u0442\u043E\u043C\u0443 \u0432 \u0441\u044A\u0451\u043C\u043A\u0430\u0445
        \u041E\u043B\u0438 \u043E\u0442\u0434\u0430\u0435\u0442 \u043F\u0440\u0435\u0434\u043F\u043E\u0447\u0442\u0435\u043D\u0438\u0435
        \u0444\u043E\u0442\u043E\u0433\u0440\u0430\u0444\u0438\u0440\u043E\u0432\u0430\u043D\u0438\u044E
        \u043B\u044E\u0434\u0435\u0439 \u0440\u0430\u0437\u043D\u043E\u0439 \u0432\u043D\u0435\u0448\u043D\u043E\u0441\u0442\u0438,
        \u0440\u0430\u0437\u043C\u0435\u0440\u0430, \u0433\u0435\u043D\u0434\u0435\u0440\u0430,
        \u043E\u0440\u0438\u0435\u043D\u0442\u0430\u0446\u0438\u0438, \u0441\u0442\u0430\u0440\u0430\u044F\u0441\u044C
        \u0441\u043D\u044F\u0442\u044C \u0438\u0445 \u043C\u0430\u043A\u0441\u0438\u043C\u0430\u043B\u044C\u043D\u043E
        \u043D\u0430\u0441\u0442\u043E\u044F\u0449\u0438\u043C\u0438 \u0438 \u043D\u0435
        \u0438\u0441\u043F\u043E\u043B\u044C\u0437\u0443\u0435\u0442 \u043A\u043E\u0441\u043C\u0435\u0442\u0438\u0447\u0435\u0441\u043A\u0443\u044E
        \u0440\u0435\u0442\u0443\u0448\u044C. \u0410\u0440\u0442\u0438\u0441\u0442
        \u043D\u0430\u0434\u0435\u0435\u0442\u0441\u044F, \u0447\u0442\u043E \u043F\u043E\u0434\u043E\u0431\u043D\u0430\u044F
        \u0444\u043E\u0442\u043E\u0433\u0440\u0430\u0444\u0438\u044F \u0441\u0442\u0430\u043D\u0435\u0442
        \u043D\u0430\u0448\u0438\u043C \u0431\u0443\u0434\u0443\u0449\u0438\u043C
        \u0438 \u0432\u0441\u0435 \u0431\u043E\u043B\u044C\u0448\u0435 \u043B\u044E\u0434\u0435\u0439
        \u0431\u0443\u0434\u0443\u0442 \u0432\u0434\u043E\u0445\u043D\u043E\u0432\u043B\u044F\u0442\u044C\u0441\u044F
        \u0441\u043E\u0431\u043E\u0439, \u0430 \u043D\u0435 \u0440\u0435\u0442\u0443\u0448\u0438\u0440\u043E\u0432\u0430\u043D\u043D\u044B\u043C\u0438
        \u0436\u0443\u0440\u043D\u0430\u043B\u044C\u043D\u044B\u043C\u0438 \u0441\u044A\u0435\u043C\u043A\u0430\u043C\u0438,
        \u0438 \u043F\u0440\u0435\u0434\u043B\u0430\u0433\u0430\u0435\u0442 \u043F\u043E\u0441\u043C\u043E\u0442\u0440\u0435\u0442\u044C
        \u0432\u0430\u043C \u043D\u0430 \u0441\u0432\u043E\u0438 \u0444\u043E\u0442\u043E\u0433\u0440\u0430\u0444\u0438\u0438,
        \u0441\u043E\u0437\u0434\u0430\u043D\u043D\u044B\u0435 \u0432 \u043F\u043E\u0441\u043B\u0435\u0434\u043D\u0438\u0435
        4 \u0433\u043E\u0434\u0430.\n"
    - Name: 
      Entry: 8
      Data: 
    - Name: Links
      Entry: 7
      Data: 2|OpenArtVirtualGallery.Gallery.Configs.ExhibitorConfig+LinkData[], Assembly-CSharp
    - Name: 
      Entry: 12
      Data: 1
    - Name: 
      Entry: 7
      Data: OpenArtVirtualGallery.Gallery.Configs.ExhibitorConfig+LinkData, Assembly-CSharp
    - Name: CommentBefore
      Entry: 6
      Data: 
    - Name: URL
      Entry: 1
      Data: https://www.instagram.com/miliyollie/
    - Name: 
      Entry: 8
      Data: 
    - Name: 
      Entry: 13
      Data: 
    - Name: 
      Entry: 8
      Data: 
    - Name: Media
      Entry: 7
      Data: OpenArtVirtualGallery.Gallery.Configs.ExhibitorConfig+MediaData, Assembly-CSharp
    - Name: Audio
      Entry: 7
      Data: 3|UnityEngine.AudioClip[], UnityEngine.AudioModule
    - Name: 
      Entry: 12
      Data: 0
    - Name: 
      Entry: 13
      Data: 
    - Name: 
      Entry: 8
      Data: 
    - Name: Videos
      Entry: 7
      Data: 4|System.String[], mscorlib
    - Name: 
      Entry: 12
      Data: 0
    - Name: 
      Entry: 13
      Data: 
    - Name: 
      Entry: 8
      Data: 
    - Name: ArtVideos
      Entry: 6
      Data: 
    - Name: 
      Entry: 8
      Data: 
