%YAML 1.1
%TAG !u! tag:unity3d.com,2011:
--- !u!114 &11400000
MonoBehaviour:
  m_ObjectHideFlags: 0
  m_CorrespondingSourceObject: {fileID: 0}
  m_PrefabInstance: {fileID: 0}
  m_PrefabAsset: {fileID: 0}
  m_GameObject: {fileID: 0}
  m_Enabled: 1
  m_EditorHideFlags: 0
  m_Script: {fileID: 11500000, guid: 3d7b32e102d143668f748fcfcef0353e, type: 3}
  m_Name: VictoriaSuvoroffConfig
  m_EditorClassIdentifier: 
  serializationData:
    SerializedFormat: 2
    SerializedBytes: 
    ReferencedUnityObjects:
    - {fileID: 8300000, guid: 21f3dcbc0547517489e2748a0723b7fc, type: 3}
    - {fileID: 8300000, guid: b1800b0e440188a4f833556b396b9273, type: 3}
    SerializedBytesString: 
    Prefab: {fileID: 0}
    PrefabModificationsReferencedUnityObjects: []
    PrefabModifications: []
    SerializationNodes:
    - Name: Name
      Entry: 7
      Data: 0|LangValueData, Assembly-CSharp
    - Name: _eng
      Entry: 1
      Data: Victoria Suvoroff<br>DykeQueer
    - Name: _ru
      Entry: 1
      Data: "\u0412\u0438\u043A\u0442\u043E\u0440\u0438\u044F \u0421\u0443\u0432\u043E\u0440\u043E\u0432a<br>\u0414\u0430\u0439[\u043A]\u0432\u0438\u0440"
    - Name: 
      Entry: 8
      Data: 
    - Name: About
      Entry: 7
      Data: 1|OpenArtVirtualGallery.Gallery.Configs.ExhibitorConfig+AboutInfo, Assembly-CSharp
    - Name: _eng
      Entry: 1
      Data: "Victoria Suvoroff is a contemporary artist, a researcher, an independent
        curator, and a PhD student at the university of Leeds, UK with research in
        the area of contemporary queer visual art in Russia.\r\n\nShe is interested
        in the issues of gender, sexuality, and the transgression within as well
        as in investigation of different approaches to non-western cultures from
        a western perspective.\r\n\nShe holds an MRes in Arts and Cultural Research
        from the University of Brighton, UK. Her thesis explores an approach to representations
        of female masculinity from Soviet history through the methods of art-practice
        and archive-creation. Her special interest is in historically accurate terminology
        applied in relation to women with masculine traits.\r\n\r\nSuvoroff, Victoria.
        DykeQueer, 2020, mixed media.\r\n\r\nThis work was created during the restrictions
        inflicted by the pandemic and was presented for the first time at the exhibition
        titled &quot;In the Void: The Year of Producing Art in Isolation&quot; (2021),
        as part of the Brighton Fringe, England. The works from this period are based
        on personal associations relating to queer art and what it means to be a
        queer artist. In DykeQueer, I use a method of archiving by reclaiming materials
        from my previous project &quot;Natural Queer Selection&quot;* (2019). I also
        explore the use of language related to queer representations and identities
        through the use of calligraphy brushes and ink.\r\n\nDykeQueer is a polyptych
        consisting of 9 parts. Each image is 20x14 centimetres in size and fitted
        in a black paper frame slightly larger than 30x25 cm. The nine components
        are displayed in three rows of three and represent the Latin letters D-Y-K-E-Q-U-E-E-R
        and a combination of two words Dyke and\r Queer. Both words were used in
        English language as an insult towards homosexual people. Dyke remains somewhat
        a problematic term to the lesbians of the younger generation, who find it
        offensive, despite the fact that older lesbians reclaimed the term as part
        of their identity. Queer, although can still be offensive to those who once
        were insulted by its use, is now widely reappropriated by many as a form
        of identification.\r\n\nIn Russian, the terms Dyke and Queer combined turn
        into a play on words Dai[k]vir and can be read as GIVE [me] QUEER which adds
        another facet to the meaning of this work. The letters are painted with red
        ink and are intertwined with an abstract background in brown-green shades
        of sepia ink. In some parts, you can see images of hands or the text of poetry.
        Incompatibility of water soluble and permanent inks, plastic and paper contributes
        to the natural process of change in images, sometimes beyond recognition.
        Thus, over time, there is a simultaneous destruction and transformation present
        in the work, which may be comparable to changes in the use of terminology
        in relations to sexual and gender minorities from generation to generation.\r\n\r\n*Also
        known as \u201CNatural Selection: Queer Artists in Residency\u201D and \u201CNatural
        Selection: Aberrant\r\nResynthesis\u201D.\r\n"
    - Name: _ru
      Entry: 1
      Data: "\u0412\u0438\u043A\u0442\u043E\u0440\u0438\u044F \u0421\u0443\u0432\u043E\u0440\u043E\u0432\u0430
        \u2014 \u0445\u0443\u0434\u043E\u0436\u043D\u0438\u0446\u0430, \u0438\u0441\u0441\u043B\u0435\u0434\u043E\u0432\u0430\u0442\u0435\u043B\u044C\u043D\u0438\u0446\u0430
        \u0438 \u043D\u0435\u0437\u0430\u0432\u0438\u0441\u0438\u043C\u044B\u0439
        \u043A\u0443\u0440\u0430\u0442\u043E\u0440, \u0430\u0441\u043F\u0438\u0440\u0430\u043D\u0442\u043A\u0430
        \u0423\u043D\u0438\u0432\u0435\u0440\u0441\u0438\u0442\u0435\u0442\u0430
        \u041B\u0438\u0434\u0441 \u0432 \u0412\u0435\u043B\u0438\u043A\u043E\u0431\u0440\u0438\u0442\u0430\u043D\u0438\u0438
        \u0441 \u0438\u0441\u0441\u043B\u0435\u0434\u043E\u0432\u0430\u0442\u0435\u043B\u044C\u0441\u043A\u043E\u0439
        \u0440\u0430\u0431\u043E\u0442\u043E\u0439 \u0432 \u0441\u0444\u0435\u0440\u0435
        \u0441\u043E\u0432\u0440\u0435\u043C\u0435\u043D\u043D\u043E\u0433\u043E
        \u0440\u0443\u0441\u0441\u043A\u043E\u0433\u043E \u043A\u0432\u0438\u0440
        \u0438\u0441\u043A\u0443\u0441\u0441\u0442\u0432\u0430.\r\n\n\u041E\u043D\u0430
        \u0438\u043D\u0442\u0435\u0440\u0435\u0441\u0443\u0435\u0442\u0441\u044F
        \u0432\u043E\u043F\u0440\u043E\u0441\u0430\u043C\u0438 \u0433\u0435\u043D\u0434\u0435\u0440\u0430,
        \u0441\u0435\u043A\u0441\u0443\u0430\u043B\u044C\u043D\u043E\u0441\u0442\u0438
        \u0438 \u0432\u0438\u0434\u0430\u043C\u0438 \u0438\u0445 \u0442\u0440\u0430\u043D\u0441\u0433\u0440\u0435\u0441\u0441\u0438\u0438,
        \u0430 \u0442\u0430\u043A\u0436\u0435 \u0438\u0437\u0443\u0447\u0435\u043D\u0438\u0435\u043C
        \u0440\u0430\u0437\u043B\u0438\u0447\u043D\u044B\u0445 \u043F\u043E\u0434\u0445\u043E\u0434\u043E\u0432
        \u043A \u043D\u0435\u0437\u0430\u043F\u0430\u0434\u043D\u044B\u043C \u043A\u0443\u043B\u044C\u0442\u0443\u0440\u0430\u043C
        \u0432 \u043A\u043E\u043D\u0442\u0435\u043A\u0441\u0442\u0435 \u0437\u0430\u043F\u0430\u0434\u043D\u043E\u0439
        \u043A\u0443\u043B\u044C\u0442\u0443\u0440\u043D\u043E\u0439 \u043F\u0430\u0440\u0430\u0434\u0438\u0433\u043C\u044B.
        \u0418\u043C\u0435\u0435\u0442 \u0441\u0442\u0435\u043F\u0435\u043D\u044C
        \u043C\u0430\u0433\u0438\u0441\u0442\u0440\u0430 \u0438\u0441\u043A\u0443\u0441\u0441\u0442\u0432
        \u0438 \u043A\u0443\u043B\u044C\u0442\u0443\u0440\u043D\u044B\u0445 \u0438\u0441\u0441\u043B\u0435\u0434\u043E\u0432\u0430\u043D\u0438\u0439
        \u0423\u043D\u0438\u0432\u0435\u0440\u0441\u0438\u0442\u0435\u0442\u0430
        \u0411\u0440\u0430\u0439\u0442\u043E\u043D\u0430, \u0412\u0435\u043B\u0438\u043A\u043E\u0431\u0440\u0438\u0442\u0430\u043D\u0438\u044F.
        \u0415\u0435 \u0434\u0438\u0441\u0441\u0435\u0440\u0442\u0430\u0446\u0438\u044F
        \u0438\u0441\u0441\u043B\u0435\u0434\u0443\u0435\u0442 \u043F\u043E\u0434\u0445\u043E\u0434
        \u043A \u0440\u0435\u043F\u0440\u0435\u0437\u0435\u043D\u0442\u0430\u0446\u0438\u044F\u043C
        \u0436\u0435\u043D\u0441\u043A\u043E\u0439 \u043C\u0430\u0441\u043A\u0443\u043B\u0438\u043D\u043D\u043E\u0441\u0442\u0438
        \u0432 \u0441\u043E\u0432\u0435\u0442\u0441\u043A\u043E\u0439 \u0438\u0441\u0442\u043E\u0440\u0438\u0438
        \u0441 \u043F\u043E\u043C\u043E\u0449\u044C\u044E \u043C\u0435\u0442\u043E\u0434\u043E\u0432
        \u0445\u0443\u0434\u043E\u0436\u0435\u0441\u0442\u0432\u0435\u043D\u043D\u043E\u0439
        \u043F\u0440\u0430\u043A\u0442\u0438\u043A\u0438 \u0438 \u0441\u043E\u0437\u0434\u0430\u043D\u0438\u044F
        \u0430\u0440\u0445\u0438\u0432\u043E\u0432. \u041E\u0441\u043E\u0431\u0435\u043D\u043D\u044B\u0439
        \u0438\u043D\u0442\u0435\u0440\u0435\u0441 \u0434\u043B\u044F \u043D\u0435\u0451
        \u043F\u0440\u0435\u0434\u0441\u0442\u0430\u0432\u043B\u044F\u0435\u0442
        \u0438\u0441\u0442\u043E\u0440\u0438\u0447\u0435\u0441\u043A\u0438 \u0442\u043E\u0447\u043D\u0430\u044F
        \u0442\u0435\u0440\u043C\u0438\u043D\u043E\u043B\u043E\u0433\u0438\u044F,
        \u043F\u0440\u0438\u043C\u0435\u043D\u044F\u0435\u043C\u0430\u044F \u043F\u043E
        \u043E\u0442\u043D\u043E\u0448\u0435\u043D\u0438\u044E \u043A \u0436\u0435\u043D\u0449\u0438\u043D\u0430\u043C
        \u0441 \u043C\u0443\u0436\u0441\u043A\u0438\u043C\u0438 \u0447\u0435\u0440\u0442\u0430\u043C\u0438
        \u0442\u043E\u0433\u043E \u0432\u0440\u0435\u043C\u0435\u043D\u0438.\r\n\r\n\u0414\u0430\u0439[\u043A]\u0432\u0438\u0440,
        2020, \u043C\u0443\u043B\u044C\u0442\u0438\u043C\u0435\u0434\u0438\u044F.\r\n\r\n\u042D\u0442\u0430
        \u0440\u0430\u0431\u043E\u0442\u0430 \u0431\u044B\u043B\u0430 \u043D\u0430\u043F\u0438\u0441\u0430\u043D\u0430
        \u0432\u043E \u0432\u0440\u0435\u043C\u044F \u043E\u0433\u0440\u0430\u043D\u0438\u0447\u0435\u043D\u0438\u0439
        \u0441\u0432\u044F\u0437\u0430\u043D\u043D\u044B\u0445 \u0441 \u043F\u0430\u043D\u0434\u0435\u043C\u0438\u0435\u0439
        \u0438 \u0431\u044B\u043B\u0430 \u043F\u0440\u0435\u0434\u0441\u0442\u0430\u0432\u043B\u0435\u043D\u0430
        \u0432\u043F\u0435\u0440\u0432\u044B\u0435 \u043D\u0430 \u0432\u044B\u0441\u0442\u0430\u0432\u043A\u0435
        \u043F\u043E\u0434 \u043D\u0430\u0437\u0432\u0430\u043D\u0438\u0435\u043C
        \"\u0412 \u043F\u0443\u0441\u0442\u043E\u0442\u0435: \u0433\u043E\u0434 \u043F\u0440\u043E\u0438\u0437\u0432\u043E\u0434\u0441\u0442\u0432\u0430
        \u0438\u0441\u043A\u0443\u0441\u0441\u0442\u0432\u0430 \u0432 \u0438\u0437\u043E\u043B\u044F\u0446\u0438\u0438\"
        (2021), \u043A\u0430\u043A \u0447\u0430\u0441\u0442\u044C \u0444\u0435\u0441\u0442\u0438\u0432\u0430\u043B\u044F
        \u0444\u0440\u0438\u043D\u0434\u0436 \u0432 \u0411\u0440\u0430\u0439\u0442\u043E\u043D\u0435,
        \u0410\u043D\u0433\u043B\u0438\u044F. \u0420\u0430\u0431\u043E\u0442\u044B
        \u044D\u0442\u043E\u0433\u043E \u043F\u0435\u0440\u0438\u043E\u0434\u0430
        \u043E\u043F\u0438\u0440\u0430\u044E\u0442\u0441\u044F \u043D\u0430 \u043B\u0438\u0447\u043D\u044B\u0435
        \u0430\u0441\u0441\u043E\u0446\u0438\u0430\u0446\u0438\u0438 \u043E \u0442\u043E\u043C,
        \u0447\u0442\u043E \u043F\u0440\u0435\u0434\u0441\u0442\u0430\u0432\u043B\u044F\u0435\u0442
        \u0441\u043E\u0431\u043E\u0439 \u043A\u0432\u0438\u0440-\u0438\u0441\u043A\u0443\u0441\u0441\u0442\u0432\u043E
        \u0438 \u0447\u0442\u043E \u0437\u043D\u0430\u0447\u0438\u0442 \u0431\u044B\u0442\u044C
        \u043A\u0432\u0438\u0440 \u0445\u0443\u0434\u043E\u0436\u043D\u0438\u043A\u043E\u043C.    
        \u0412 \u0414\u0430\u0439[\u043A]\u0432\u0438\u0440 \u044F \u0438\u043D\u043A\u043E\u0440\u043F\u043E\u0440\u0438\u0440\u0443\u044E
        \u043C\u0435\u0442\u043E\u0434 \u0430\u0440\u0445\u0438\u0432\u0438\u0440\u043E\u0432\u0430\u043D\u0438\u044F
        \u0447\u0435\u0440\u0435\u0437 \u0438\u0441\u043F\u043E\u043B\u044C\u0437\u043E\u0432\u0430\u043D\u0438\u0435
        \u043C\u0430\u0442\u0435\u0440\u0438\u0430\u043B\u043E\u0432 \u043E\u0441\u0442\u0430\u0432\u0448\u0438\u0445\u0441\u044F
        \u043E\u0442 \u043C\u043E\u0435\u0433\u043E \u043F\u0440\u0435\u0434\u044B\u0434\u0443\u0449\u0435\u0433\u043E
        \u043F\u0440\u043E\u0435\u043A\u0442\u0430 \"\u0415\u0441\u0442\u0435\u0441\u0442\u0432\u0435\u043D\u043D\u044B\u0439
        \u041A\u0432\u0438\u0440 \u041E\u0442\u0431\u043E\u0440\" (2019), \u0430
        \u0447\u0435\u0440\u0435\u0437 \u043F\u0438\u0441\u044C\u043C\u043E \u0447\u0435\u0440\u043D\u0438\u043B\u0430\u043C\u0438
        \u044F \u0438\u0441\u0441\u043B\u0435\u0434\u0443\u044E \u0438\u0441\u043F\u043E\u043B\u044C\u0437\u043E\u0432\u0430\u043D\u0438\u044F
        \u044F\u0437\u044B\u043A\u0430, \u043E\u0442\u043D\u043E\u0441\u044F\u0449\u0435\u0433\u043E\u0441\u044F
        \u043A \u043A\u0432\u0438\u0440-\u0440\u0435\u043F\u0440\u0435\u0437\u0435\u043D\u0442\u0430\u0446\u0438\u044F\u043C
        \u0438 \u0438\u0434\u0435\u043D\u0442\u0438\u0447\u043D\u043E\u0441\u0442\u044F\u043C.\r\n\n\u0414\u0430\u0439[\u043A]\u0432\u0438\u0440
        \u044D\u0442\u043E \u043F\u043E\u043B\u0438\u043F\u0442\u0438\u0445, \u0441\u043E\u0441\u0442\u043E\u044F\u0449\u0438\u0439
        \u0438\u0437 9-\u0438 \u0447\u0430\u0441\u0442\u0435\u0439. \u041A\u0430\u0436\u0434\u0430\u044F
        \u0440\u0430\u0431\u043E\u0442\u0430 \u0440\u0430\u0437\u043C\u0435\u0440\u043E\u043C
        20\u044514 \u0441\u043C \u043E\u0444\u043E\u0440\u043C\u043B\u0435\u043D\u0430
        \u0432 \u043F\u0430\u0441\u043F\u0430\u0440\u0442\u0443 \u0447\u0435\u0440\u043D\u043E\u0433\u043E
        \u0446\u0432\u0435\u0442\u0430 \u0443\u0432\u0435\u043B\u0438\u0447\u0438\u0432\u0430\u044F
        \u043A\u0430\u0436\u0434\u0443\u044E \u0441\u043E\u0441\u0442\u0430\u0432\u043D\u0443\u044E
        \u0434\u043E \u0440\u0430\u0437\u043C\u0435\u0440\u0430 \u0447\u0443\u0442\u044C
        \u0431\u043E\u043B\u044C\u0448\u0435 30\u044525 \u0441\u043C. \u0414\u0435\u0432\u044F\u0442\u044C
        \u0441\u043E\u0441\u0442\u0430\u0432\u043D\u044B\u0445 \u0447\u0430\u0441\u0442\u0435\u0439
        \u0432\u044B\u0441\u0442\u0430\u0432\u043B\u0435\u043D\u044B \u0432 \u0442\u0440\u0438
        \u0440\u044F\u0434\u0430 \u043F\u043E \u0442\u0440\u0438 \u0438 \u043F\u0440\u0435\u0434\u0441\u0442\u0430\u0432\u043B\u044F\u044E\u0442
        \u0441\u043E\u0431\u043E\u0439 \u043B\u0430\u0442\u0438\u043D\u0441\u043A\u0438\u0435
        \u0431\u0443\u043A\u0432\u044B DYKEQUEER, \u0438\u043B\u0438 \u0414\u0410\u0419\u041A\u041A\u0412\u0418\u0420,
        \u0434\u0432\u0430 \u0430\u043D\u0433\u043B\u0438\u0439\u0441\u043A\u0438\u0445
        \u0441\u043B\u043E\u0432\u0430 \u0414\u0430\u0439\u043A \u0438 \u041A\u0432\u0438\u0440.
        \u041E\u0431\u0430 \u0441\u043B\u043E\u0432\u0430 \u0438\u0441\u043F\u043E\u043B\u044C\u0437\u043E\u0432\u0430\u043B\u0438\u0441\u044C
        \u0432 \u0430\u043D\u0433\u043B\u0438\u0439\u0441\u043A\u043E\u043C \u044F\u0437\u044B\u043A\u0435,
        \u043A\u0430\u043A \u043D\u0430\u0434\u0440\u0443\u0433\u0430\u0442\u0435\u043B\u044C\u0441\u0442\u0432\u043E
        \u043D\u0430\u0434 \u0433\u043E\u043C\u043E\u0441\u0435\u043A\u0441\u0443\u0430\u043B\u044C\u043D\u044B\u043C\u0438
        \u043C\u0435\u043D\u044C\u0448\u0438\u043D\u0441\u0442\u0432\u0430\u043C\u0438.
        \u0414\u0430\u0439\u043A \u043D\u0435 \u043F\u0440\u0438\u043D\u044F\u0442\u043E
        \u0438\u0441\u043F\u043E\u043B\u044C\u0437\u043E\u0432\u0430\u0442\u044C
        \u0432 \u043E\u0442\u043D\u043E\u0448\u0435\u043D\u0438\u0438 \u043B\u0435\u0441\u0431\u0438\u044F\u043D\u043E\u043A
        \u043C\u043E\u043B\u043E\u0434\u043E\u0433\u043E \u043F\u043E\u043A\u043E\u043B\u0435\u043D\u0438\u044F,
        \u043A\u0430\u043A \u043E\u0431\u0438\u0434\u043D\u044B\u0439 \u0442\u0435\u0440\u043C\u0438\u043D
        \u043D\u0435 \u0441\u043C\u043E\u0442\u0440\u044F \u043D\u0430 \u0442\u043E,
        \u0447\u0442\u043E \u0441\u0442\u0430\u0440\u0448\u0435\u0435 \u043F\u043E\u043A\u043E\u043B\u0435\u043D\u0438\u0435
        \u043F\u0440\u0438\u043D\u044F\u043B\u043E \u0435\u0433\u043E, \u043A\u0430\u043A
        \u0438\u0434\u0435\u043D\u0442\u0438\u0444\u0438\u043A\u0430\u0446\u0438\u044E.\r\n\n\u0421\u043E\u0432\u043C\u0435\u0449\u0435\u043D\u043D\u044B\u0435
        \u043D\u0430 \u0440\u0443\u0441\u0441\u043A\u043E\u043C \u044D\u0442\u0438
        \u0442\u0435\u0440\u043C\u0438\u043D\u044B \u043F\u0440\u0435\u0432\u0440\u0430\u0442\u0438\u043B\u0438\u0441\u044C
        \u0432 \u0438\u0433\u0440\u0443 \u0441\u043B\u043E\u0432 \u0414\u0430\u0439[\u043A]\u0432\u0438\u0440
        \u0438 \u0434\u043E\u0431\u0430\u0432\u0438\u043B\u0438 \u0435\u0449\u0435
        \u043E\u0434\u043D\u0443 \u0433\u0440\u0430\u043D\u044C \u043A \u0437\u043D\u0430\u0447\u0435\u043D\u0438\u044E
        \u044D\u0442\u043E\u0439 \u0440\u0430\u0431\u043E\u0442\u044B. \u0421\u0430\u043C\u0438
        \u0431\u0443\u043A\u0432\u044B, \u043D\u0430\u043F\u0438\u0441\u0430\u043D\u043D\u044B\u0435
        \u043A\u0438\u0441\u0442\u044C\u044E \u0438 \u043A\u0440\u0430\u0441\u043D\u044B\u043C\u0438
        \u0447\u0435\u0440\u043D\u0438\u043B\u0430\u043C\u0438 \u043F\u0435\u0440\u0435\u043F\u043B\u0435\u0442\u0430\u044E\u0442\u0441\u044F
        \u0441 \u0430\u0431\u0441\u0442\u0440\u0430\u043A\u0442\u043D\u044B\u043C
        \u0444\u043E\u043D\u043E\u043C \u0432 \u043A\u043E\u0440\u0438\u0447\u043D\u0435\u0432\u043E-\u0437\u0435\u043B\u0435\u043D\u044B\u0445
        \u043E\u0442\u0442\u0435\u043D\u043A\u0430\u0445 \u0447\u0435\u0440\u043D\u0438\u043B
        \u0441\u0435\u043F\u0438\u044F. \u0412 \u043D\u0435\u043A\u043E\u0442\u043E\u0440\u044B\u0445
        \u0441\u043B\u0443\u0447\u0430\u044F\u0445 \u043C\u043E\u0436\u043D\u043E
        \u0443\u0432\u0438\u0434\u0435\u0442\u044C \u043E\u0431\u0440\u0430\u0437\u044B
        \u043A\u0438\u0441\u0442\u0435\u0439 \u0440\u0443\u043A \u0438\u043B\u0438
        \u0442\u0435\u043A\u0441\u0442 \u043F\u043E\u044D\u0437\u0438\u0438. \u041D\u0430\u0442\u0443\u0440\u0430\u043B\u044C\u043D\u044B\u0439
        \u043F\u0440\u043E\u0446\u0435\u0441\u0441 \u043D\u0435\u0441\u043E\u0432\u043C\u0435\u0441\u0442\u0438\u043C\u043E\u0441\u0442\u0438
        \u0447\u0435\u0440\u043D\u0438\u043B \u043D\u0430 \u0440\u0430\u0437\u043D\u043E\u0439
        \u043E\u0441\u043D\u043E\u0432\u0435, \u043F\u043B\u0430\u0441\u0442\u0438\u043A\u0430
        \u0438 \u0431\u0443\u043C\u0430\u0433\u0438 \u0441\u043F\u043E\u0441\u043E\u0431\u0441\u0442\u0432\u0443\u0435\u0442
        \u0438\u0437\u043C\u0435\u043D\u0435\u043D\u0438\u044F\u043C \u0432 \u043E\u0431\u0440\u0430\u0437\u0430\u0445,
        \u0438\u043D\u043E\u0433\u0434\u0430 \u0434\u043E \u043D\u0435\u0443\u0437\u043D\u0430\u0432\u0430\u0435\u043C\u043E\u0441\u0442\u0438.
        \u0422\u0430\u043A\u0438\u043C \u043E\u0431\u0440\u0430\u0437\u043E\u043C,
        \u0441\u043E \u0432\u0440\u0435\u043C\u0435\u043D\u0435\u043C, \u0432 \u0440\u0430\u0431\u043E\u0442\u0435
        \u043F\u0440\u043E\u0438\u0441\u0445\u043E\u0434\u0438\u0442 \u043E\u0434\u043D\u043E\u0432\u0440\u0435\u043C\u0435\u043D\u043D\u043E
        \u0440\u0430\u0437\u0440\u0443\u0448\u0435\u043D\u0438\u0435 \u0438 \u043F\u0440\u0435\u043E\u0431\u0440\u0430\u0436\u0435\u043D\u0438\u0435,
        \u043A\u043E\u0442\u043E\u0440\u043E\u0435 \u0432\u043E\u0437\u043C\u043E\u0436\u043D\u043E
        \u0441\u0440\u0430\u0432\u043D\u0438\u043C\u043E \u0441 \u0438\u0437\u043C\u0435\u043D\u0435\u043D\u0438\u044F\u043C\u0438
        \u0432 \u0438\u0441\u043F\u043E\u043B\u044C\u0437\u043E\u0432\u0430\u043D\u0438\u0438
        \u0442\u0435\u0440\u043C\u0438\u043D\u043E\u043B\u043E\u0433\u0438\u0438
        \u0432 \u043E\u0442\u043D\u043E\u0448\u0435\u043D\u0438\u044F\u0445 \u043A
        \u0441\u0435\u043A\u0441\u0443\u0430\u043B\u044C\u043D\u044B\u043C \u0438
        \u0433\u0435\u043D\u0434\u0435\u0440\u043D\u044B\u043C \u043C\u0435\u043D\u044C\u0448\u0438\u043D\u0441\u0442\u0432\u0430\u043C
        \u043E\u0442 \u043F\u043E\u043A\u043E\u043B\u0435\u043D\u0438\u044F \u043A
        \u043F\u043E\u043A\u043E\u043B\u0435\u043D\u0438\u044E.  \r\n"
    - Name: 
      Entry: 8
      Data: 
    - Name: Links
      Entry: 7
      Data: 2|OpenArtVirtualGallery.Gallery.Configs.ExhibitorConfig+LinkData[], Assembly-CSharp
    - Name: 
      Entry: 12
      Data: 1
    - Name: 
      Entry: 7
      Data: OpenArtVirtualGallery.Gallery.Configs.ExhibitorConfig+LinkData, Assembly-CSharp
    - Name: CommentBefore
      Entry: 6
      Data: 
    - Name: URL
      Entry: 1
      Data: https://www.victoriasuvoroff.com/
    - Name: 
      Entry: 8
      Data: 
    - Name: 
      Entry: 13
      Data: 
    - Name: 
      Entry: 8
      Data: 
    - Name: Media
      Entry: 7
      Data: OpenArtVirtualGallery.Gallery.Configs.ExhibitorConfig+MediaData, Assembly-CSharp
    - Name: Audio
      Entry: 7
      Data: 3|UnityEngine.AudioClip[], UnityEngine.AudioModule
    - Name: 
      Entry: 12
      Data: 2
    - Name: 
      Entry: 10
      Data: 0
    - Name: 
      Entry: 10
      Data: 1
    - Name: 
      Entry: 13
      Data: 
    - Name: 
      Entry: 8
      Data: 
    - Name: Videos
      Entry: 7
      Data: 4|System.String[], mscorlib
    - Name: 
      Entry: 12
      Data: 1
    - Name: 
      Entry: 1
      Data: videos/VictoriaSuvoroff.mp4
    - Name: 
      Entry: 13
      Data: 
    - Name: 
      Entry: 8
      Data: 
    - Name: ArtVideos
      Entry: 6
      Data: 
    - Name: 
      Entry: 8
      Data: 
