%YAML 1.1
%TAG !u! tag:unity3d.com,2011:
--- !u!687078895 &4343727234628468602
SpriteAtlas:
  m_ObjectHideFlags: 0
  m_CorrespondingSourceObject: {fileID: 0}
  m_PrefabInstance: {fileID: 0}
  m_PrefabAsset: {fileID: 0}
  m_Name: ExhibitOverlayDisplay
  m_EditorData:
    serializedVersion: 2
    textureSettings:
      serializedVersion: 2
      anisoLevel: 1
      compressionQuality: 50
      maxTextureSize: 2048
      textureCompression: 0
      filterMode: 1
      generateMipMaps: 0
      readable: 0
      crunchedCompression: 0
      sRGB: 1
    platformSettings: []
    packingSettings:
      serializedVersion: 2
      padding: 2
      blockOffset: 1
      allowAlphaSplitting: 0
      enableRotation: 1
      enableTightPacking: 0
      enableAlphaDilation: 0
    secondaryTextureSettings: {}
    variantMultiplier: 1
    packables:
    - {fileID: 2800000, guid: 6428e8bf032990f4797c6411b7db76bc, type: 3}
    - {fileID: 2800000, guid: 11717560f97dd3c45b984cc2e5935f9e, type: 3}
    - {fileID: 2800000, guid: ef15d8d77ceda894d8a0ee3cf4a6ceba, type: 3}
    - {fileID: 2800000, guid: 956c419cf7bb2cd439e8c1a016c0a660, type: 3}
    - {fileID: 2800000, guid: 729c6c24c297f2a49aeeb4892cd097e7, type: 3}
    - {fileID: 2800000, guid: 79ca870c08c03dc48ade5fbb1f32ff0e, type: 3}
    - {fileID: 2800000, guid: 21b8e58fb637c7048917bdbdf449de0c, type: 3}
    - {fileID: 2800000, guid: baedb519cfa50424290a5ef74b3740ed, type: 3}
    - {fileID: 2800000, guid: 9891ddb3b82c9a14bac7d20086f8c801, type: 3}
    - {fileID: 2800000, guid: 9bcdc9b5686a2024bb37a2052a4ba3b0, type: 3}
    - {fileID: 2800000, guid: 66059a93199e97846aa96e945b8f87df, type: 3}
    - {fileID: 2800000, guid: 7a35e171bce350144b2357a446e1e272, type: 3}
    bindAsDefault: 1
    isAtlasV2: 0
    cachedData: {fileID: 0}
  m_MasterAtlas: {fileID: 0}
  m_PackedSprites:
  - {fileID: 21300000, guid: 11717560f97dd3c45b984cc2e5935f9e, type: 3}
  - {fileID: 21300000, guid: 7a35e171bce350144b2357a446e1e272, type: 3}
  - {fileID: 21300000, guid: 66059a93199e97846aa96e945b8f87df, type: 3}
  - {fileID: 21300000, guid: 9891ddb3b82c9a14bac7d20086f8c801, type: 3}
  - {fileID: 21300000, guid: 729c6c24c297f2a49aeeb4892cd097e7, type: 3}
  - {fileID: 21300000, guid: 9bcdc9b5686a2024bb37a2052a4ba3b0, type: 3}
  - {fileID: 21300000, guid: ef15d8d77ceda894d8a0ee3cf4a6ceba, type: 3}
  - {fileID: 21300000, guid: baedb519cfa50424290a5ef74b3740ed, type: 3}
  - {fileID: 21300000, guid: 79ca870c08c03dc48ade5fbb1f32ff0e, type: 3}
  - {fileID: 21300000, guid: 956c419cf7bb2cd439e8c1a016c0a660, type: 3}
  - {fileID: 21300000, guid: 21b8e58fb637c7048917bdbdf449de0c, type: 3}
  - {fileID: 21300000, guid: 6428e8bf032990f4797c6411b7db76bc, type: 3}
  m_PackedSpriteNamesToIndex:
  - left_arrow
  - circle_2
  - Circle
  - pngwing.com
  - stop_icon
  - speech_baloon
  - right_arrow
  - video-camera
  - play_icon
  - audio_icon
  - plause_icon
  - button_close
  m_RenderDataMap: {}
  m_Tag: ExhibitOverlayDisplay
  m_IsVariant: 0
