%YAML 1.1
%TAG !u! tag:unity3d.com,2011:
--- !u!114 &11400000
MonoBehaviour:
  m_ObjectHideFlags: 0
  m_CorrespondingSourceObject: {fileID: 0}
  m_PrefabInstance: {fileID: 0}
  m_PrefabAsset: {fileID: 0}
  m_GameObject: {fileID: 0}
  m_Enabled: 1
  m_EditorHideFlags: 0
  m_Script: {fileID: 11500000, guid: 481421b6ac041f249a251f959e0e8514, type: 3}
  m_Name: AppConfig
  m_EditorClassIdentifier: 
  _commonConfig:
    _exibitionNames:
      _serializedList:
      - Key: 2
        Value: OpenArt 2021
      - Key: 3
        Value: OpenArt 2022
      - Key: 4
        Value: OpenArt 2023-2024
  _langConfig:
    _defaultLang: 0
  _heroConfigsList:
    _configs:
    - {fileID: 11400000, guid: 18069669fc386df43b3e1633506243a6, type: 2}
    - {fileID: 11400000, guid: 19b53281c071bc8499419d2ed23ff37a, type: 2}
    - {fileID: 11400000, guid: 7c31845f8afabf149aeb25586e5ae0b7, type: 2}
    - {fileID: 11400000, guid: 892dc20b40c18c9468957b868374b93c, type: 2}
    - {fileID: 11400000, guid: f379bfb7d937e4f43973030b84418d1f, type: 2}
    - {fileID: 11400000, guid: 79b0f20471d28af46873f124073ecf1d, type: 2}
    - {fileID: 11400000, guid: 45bc9f49f7e8c0c4d82e3f3fed6acae7, type: 2}
    - {fileID: 11400000, guid: 9897babfdb2dfc04b86ce241953a1010, type: 2}
    - {fileID: 11400000, guid: ed3ef4a38f555014c801910983f1ce1c, type: 2}
    - {fileID: 11400000, guid: 72c26c2f7a2b1704eba32a8ba4e1af2e, type: 2}
    - {fileID: 11400000, guid: eaa8c1167544baf43aca096ebf2d55b3, type: 2}
    - {fileID: 11400000, guid: 4f112cf439f43ef4bb66b01c2beac0c9, type: 2}
    - {fileID: 11400000, guid: 43cc867123ee5ef45afc006e0de5f16f, type: 2}
    - {fileID: 11400000, guid: 8ceab13643a523e42863bd782086accf, type: 2}
    - {fileID: 11400000, guid: 07aad41e620eb3e4786fa96af688c912, type: 2}
    - {fileID: 11400000, guid: 5d46e458891796c4593bcc05f646ae65, type: 2}
    - {fileID: 11400000, guid: 392a2c02d0409a548bc2c64fb133f0e7, type: 2}
    - {fileID: 11400000, guid: 0f7fcda37aa2e4e4395c3d785c7f948a, type: 2}
    - {fileID: 11400000, guid: a3f304db361f76247be95698dbed05a6, type: 2}
    - {fileID: 11400000, guid: ebaf29cbf57a32342bccb67bf4620420, type: 2}
  _visitorPrefabs:
    _visitorPrefabRef: {fileID: 6540478278536368374, guid: 7b77117c97d8a8644aecbb34563fc6d1, type: 3}
    _botVisitorRef: {fileID: -159118890798016438, guid: 9f40798ef5e394c4ead304a45db0cb51, type: 3}
  _commonAppPrefabs:
    _notificationPopupPrefabRef: {fileID: -8826775292648352733, guid: 87c3b03cbfaa4064d8cfb51eb568901d, type: 3}
    _dialogPopupPrefabRef: {fileID: -8826775292648352733, guid: 8a24043f73548dd4a858542cd7b6be60, type: 3}
  _publishSettings:
    _isDebug: 1
  _urls:
    _telegramChatUrl: https://t.me/OpenArt_Queerfest
    _videosUrl: https://openartmoscow.org/gallery/videos/
