%YAML 1.1
%TAG !u! tag:unity3d.com,2011:
--- !u!114 &11400000
MonoBehaviour:
  m_ObjectHideFlags: 0
  m_CorrespondingSourceObject: {fileID: 0}
  m_PrefabInstance: {fileID: 0}
  m_PrefabAsset: {fileID: 0}
  m_GameObject: {fileID: 0}
  m_Enabled: 1
  m_EditorHideFlags: 0
  m_Script: {fileID: 11500000, guid: e9aae626fc304d61bb221dd7ba58b872, type: 3}
  m_Name: LangBaseValuesConfig
  m_EditorClassIdentifier: 
  _langValues:
    _hash:
      m_Keys: 010000000000000002000000030000000400000005000000060000000700000008000000090000000a0000000b0000000c0000000d0000000e000000
      m_Values:
      - _eng: enter
        _ru: "\u0432\u043E\u0439\u0442\u0438"
      - _eng: virtual gallery
        _ru: "\u0432\u0438\u0440\u0442\u0443\u0430\u043B\u044C\u043D\u0430\u044F
          \u0433\u0430\u043B\u0435\u0440\u0435\u044F"
      - _eng: enter you name...
        _ru: "\u0432\u0432\u0435\u0434\u0438 \u0438\u043C\u044F..."
      - _eng: Hi
        _ru: "\u041F\u0440\u0438\u0432\u0435\u0442"
      - _eng: <u>choose a character to enter the gallery (you can scroll the list)</u>
        _ru: "<u>\u0432\u044B\u0431\u0435\u0440\u0438 \u043F\u0435\u0440\u0441\u043E\u043D\u0430\u0436
          \u0434\u043B\u044F \u0432\u0445\u043E\u0434\u0430 \u0432 \u0433\u0430\u043B\u0435\u0440\u0435\u044E
          (\u0430\u0432\u0430\u0442\u0430\u0440\u044B \u043C\u043E\u0436\u043D\u043E
          \u0441\u043A\u0440\u043E\u043B\u043B\u0438\u0442\u044C)</u>"
      - _eng: open chat
        _ru: "\u043E\u0442\u043A\u0440\u044B\u0442\u044C \u0447\u0430\u0442"
      - _eng: close chat
        _ru: "\u0441\u043A\u0440\u044B\u0442\u044C \u0447\u0430\u0442"
      - _eng: send
        _ru: "\u043E\u0442\u043F\u0440\u0430\u0432\u0438\u0442\u044C"
      - _eng: yes
        _ru: "\u0434\u0430"
      - _eng: no
        _ru: "\u043D\u0435\u0442"
      - _eng: go up
        _ru: "\u043F\u043E\u0434\u043D\u044F\u0442\u044C\u0441\u044F \u043D\u0430\u0432\u0435\u0440\u0445"
      - _eng: go down
        _ru: "\u0441\u043F\u0443\u0441\u0442\u0438\u0442\u044C\u0441\u044F \u0432\u043D\u0438\u0437"
      - _eng: Server connection interrupted! Try to connect again
        _ru: "\u0421\u043E\u0435\u0434\u0438\u043D\u0435\u043D\u0438\u0435 \u0441
          \u0441\u0435\u0440\u0432\u0435\u0440\u043E\u043C \u043F\u0440\u0435\u0440\u0432\u0430\u043D\u043E!
          \u041F\u043E\u043F\u0440\u043E\u0431\u0443\u0439\u0442\u0435 \u043F\u043E\u0434\u043A\u043B\u044E\u0447\u0438\u0442\u044C\u0441\u044F
          \u0437\u0430\u043D\u043E\u0432\u043E"
      - _eng: Would you like to visit the {0} exhibition?
        _ru: "\u0425\u043E\u0442\u0438\u0442\u0435 \u043F\u043E\u0441\u0435\u0442\u0438\u0442\u044C
          \u0432\u044B\u0441\u0442\u0430\u0432\u043A\u0443 {0}?"
      - _eng: continuation of the exhibition
        _ru: "\u043F\u0440\u043E\u0434\u043E\u043B\u0436\u0435\u043D\u0438\u0435
          \u0432\u044B\u0441\u0442\u0430\u0432\u043A\u0438"
