%YAML 1.1
%TAG !u! tag:unity3d.com,2011:
--- !u!114 &11400000
MonoBehaviour:
  m_ObjectHideFlags: 0
  m_CorrespondingSourceObject: {fileID: 0}
  m_PrefabInstance: {fileID: 0}
  m_PrefabAsset: {fileID: 0}
  m_GameObject: {fileID: 0}
  m_Enabled: 1
  m_EditorHideFlags: 0
  m_Script: {fileID: 11500000, guid: d143467932cd29848b4d7fea8b54f033, type: 3}
  m_Name: Female04Config
  m_EditorClassIdentifier: 
  _avatarPicture: {fileID: 21300000, guid: 14fdf4f02035bb0459f58168cbc4c83a, type: 3}
  _cameraPosition: {x: 0, y: 1.763, z: 0}
  _nicknameDisplayPosition: {x: 0, y: 2, z: 0}
  _heroModelPrefabRef: {fileID: -746699957758164240, guid: c207ddae5b6891a498a99897eac87877, type: 3}
  _color: {r: 0.2966358, g: 0.4821218, b: 0.6226415, a: 1}
  _animator: {fileID: 22100000, guid: ad8ac70721d96524eb770332b1101691, type: 2}
  _animatorAvatar: {fileID: 9000000, guid: 16002af7a7dde5748b82fe5aa4cea91a, type: 3}
