%YAML 1.1
%TAG !u! tag:unity3d.com,2011:
--- !u!114 &11400000
MonoBehaviour:
  m_ObjectHideFlags: 0
  m_CorrespondingSourceObject: {fileID: 0}
  m_PrefabInstance: {fileID: 0}
  m_PrefabAsset: {fileID: 0}
  m_GameObject: {fileID: 0}
  m_Enabled: 1
  m_EditorHideFlags: 0
  m_Script: {fileID: 11500000, guid: d143467932cd29848b4d7fea8b54f033, type: 3}
  m_Name: Male07Config
  m_EditorClassIdentifier: 
  _avatarPicture: {fileID: 21300000, guid: 527247aaa29b34244ad5bc1489cc76b7, type: 3}
  _cameraPosition: {x: 0, y: 1.875, z: 0}
  _nicknameDisplayPosition: {x: 0, y: 2.12, z: 0}
  _heroModelPrefabRef: {fileID: -7793473115085563835, guid: dbe01be1b674eaf4a87085a146b1046b, type: 3}
  _color: {r: 0.4716981, g: 0.41307133, b: 0.1713243, a: 1}
  _animator: {fileID: 22100000, guid: c2ab4b9ff9285e64c9f1286fd5e08ced, type: 2}
  _animatorAvatar: {fileID: 9000000, guid: 9ad19c3a7738fb74bba66ffc748a8290, type: 3}
