%YAML 1.1
%TAG !u! tag:unity3d.com,2011:
--- !u!114 &11400000
MonoBehaviour:
  m_ObjectHideFlags: 0
  m_CorrespondingSourceObject: {fileID: 0}
  m_PrefabInstance: {fileID: 0}
  m_PrefabAsset: {fileID: 0}
  m_GameObject: {fileID: 0}
  m_Enabled: 1
  m_EditorHideFlags: 0
  m_Script: {fileID: 11500000, guid: 225682ba1fd24ea1b62c0e7a7eaf2d9e, type: 3}
  m_Name: BotConfig
  m_EditorClassIdentifier: 
  serializationData:
    SerializedFormat: 2
    SerializedBytes: 
    ReferencedUnityObjects:
    - {fileID: 11400000, guid: f04408306dcabce4ebc41ade90bba0c4, type: 2}
    - {fileID: 11400000, guid: 402bfa152f4f4e649a5ab06cb45ee8ea, type: 2}
    SerializedBytesString: 
    Prefab: {fileID: 0}
    PrefabModificationsReferencedUnityObjects: []
    PrefabModifications: []
    SerializationNodes:
    - Name: FirstFloorSpeechesConfig
      Entry: 10
      Data: 0
    - Name: SecondFloorSpeechesConfig
      Entry: 10
      Data: 1
    - Name: MoveSpeed
      Entry: 4
      Data: 1.8
