%YAML 1.1
%TAG !u! tag:unity3d.com,2011:
--- !u!114 &11400000
MonoBehaviour:
  m_ObjectHideFlags: 0
  m_CorrespondingSourceObject: {fileID: 0}
  m_PrefabInstance: {fileID: 0}
  m_PrefabAsset: {fileID: 0}
  m_GameObject: {fileID: 0}
  m_Enabled: 1
  m_EditorHideFlags: 0
  m_Script: {fileID: 11500000, guid: dae9f1b922ae420b81c4dda593bd6d21, type: 3}
  m_Name: DignityFestConfig
  m_EditorClassIdentifier: 
  serializationData:
    SerializedFormat: 2
    SerializedBytes: 
    ReferencedUnityObjects: []
    SerializedBytesString: 
    Prefab: {fileID: 0}
    PrefabModificationsReferencedUnityObjects: []
    PrefabModifications: []
    SerializationNodes: []
  _info:
    _eng: "<color=#FFBF00FF><size=34>Dignity fest 2021: Feminism to every home!</size></color>\n\r\nThis
      slogan describes the general mood of the third Dignity fest best of all. The
      whole day we dealt with specific women's problems, from stereotypes to domestic
      violence. A team of artists curated by Olezha Urzik consolidated the impression
      with strong and sometimes repulsive images of the Ticket to (p)ride exhibition.\r\n\r\nThanks
      to our guests and speakers for filling Dignity fest with valuable knowledge
      and pleasant emotions. See you next year!\r\nWe wanted to draw attention to
      silencing of women's and transgender persons' problems, of their invisibility
      for the society. The name \"Ticket to (p)ride\" - it's the delaration that
      not everybody get the ticket for saving in critical situations.\r\nI was choosing
      with my heart and soul the people I got used to work with; the self-confident
      artists and those who are just declaring who they are. Because the idea of
      the exhibition is also that you shouldn't be afraid of declaring about you
      and your position.\r\n \r\n \r\nOlezha Urzik (\u0441), an artist and the curator
      of the exhibition\r\nMurmansk\r\nOlezha Urzik\r\nI'm trying to find myself.
      I'm keen on painting, abstractions, symbolism, surrealism. I like pleasant
      materials.\r\n\r\n<link=\"https://www.instagram.com/olurzik/\"><u>https://www.instagram.com/olurzik/</u></link>"
    _ru: "<color=#FFBF00FF><size=34>Dignity fest 2021: \u0444\u0435\u043C\u0438\u043D\u0438\u0437\u043C
      \u0432 \u043A\u0430\u0436\u0434\u044B\u0439 \u0434\u043E\u043C!</size></color>\n\r\n\u042D\u0442\u043E\u0442
      \u043B\u043E\u0437\u0443\u043D\u0433 \u043B\u0443\u0447\u0448\u0435 \u0432\u0441\u0435\u0433\u043E
      \u043E\u043F\u0438\u0441\u044B\u0432\u0430\u0435\u0442 \u043E\u0431\u0449\u0438\u0439
      \u043D\u0430\u0441\u0442\u0440\u043E\u0439 \u0443\u0436\u0435 \u0442\u0440\u0435\u0442\u044C\u0435\u0433\u043E
      \u0444\u0435\u0441\u0442\u0438\u0432\u0430\u043B\u044F \u0434\u043E\u0441\u0442\u043E\u0438\u043D\u0441\u0442\u0432\u0430.
      \u0426\u0435\u043B\u044B\u0439 \u0434\u0435\u043D\u044C \u043C\u044B \u0440\u0430\u0437\u0431\u0438\u0440\u0430\u043B\u0438\u0441\u044C
      \u0432 \u0441\u043F\u0435\u0446\u0438\u0444\u0438\u0447\u0435\u0441\u043A\u0438\u0445
      \u0436\u0435\u043D\u0441\u043A\u0438\u0445 \u043F\u0440\u043E\u0431\u043B\u0435\u043C\u0430\u0445,
      \u043E\u0442 \u0441\u0442\u0435\u0440\u0435\u043E\u0442\u0438\u043F\u043E\u0432
      \u0434\u043E \u0434\u043E\u043C\u0430\u0448\u043D\u0435\u0433\u043E \u043D\u0430\u0441\u0438\u043B\u0438\u044F.\r\n\u041A\u043E\u043C\u0430\u043D\u0434\u0430
      \u0445\u0443\u0434\u043E\u0436\u043D\u0438\u043A\u043E\u0432 \u043F\u043E\u0434
      \u043A\u0443\u0440\u0430\u0442\u043E\u0440\u0441\u0442\u0432\u043E\u043C \u041E\u043B\u0435\u0436\u0438
      \u0423\u0440\u0437\u0438\u043A \u0437\u0430\u043A\u0440\u0435\u043F\u0438\u043B\u0430
      \u0432\u043F\u0435\u0447\u0430\u0442\u043B\u0435\u043D\u0438\u0435 \u0441\u0438\u043B\u044C\u043D\u044B\u043C\u0438
      \u0438 \u043F\u043E\u0440\u043E\u0439 \u043E\u0442\u0442\u0430\u043B\u043A\u0438\u0432\u0430\u044E\u0449\u0438\u043C\u0438
      \u043E\u0431\u0440\u0430\u0437\u0430\u043C\u0438 \u0432\u044B\u0441\u0442\u0430\u0432\u043A\u0438
      Ticket to (p)ride. \u041D\u0430\u043C \u0443\u0434\u0430\u043B\u043E\u0441\u044C
      \u0441\u043E\u0431\u0440\u0430\u0442\u044C \u0440\u0430\u0431\u043E\u0442\u044B
      \u0432 \u0440\u0430\u0437\u043D\u044B\u0445 \u0436\u0430\u043D\u0440\u0430\u0445
      \u0438\u0437 \u0440\u0430\u0437\u043D\u044B\u0445 \u0433\u043E\u0440\u043E\u0434\u043E\u0432
      \u041C\u043E\u0441\u043A\u0432\u044B, \u0421\u0430\u043D\u043A\u0442-\u041F\u0435\u0442\u0435\u0440\u0431\u0443\u0440\u0433\u0430,
      \u041C\u0443\u0440\u043C\u0430\u043D\u0441\u043A\u0430 \u0438 \u041F\u0435\u0442\u0440\u043E\u0437\u0430\u0432\u043E\u0434\u0441\u043A\u0430.
      \u0412\u0430\u0441 \u0436\u0434\u0443\u0442 \u043A\u0430\u0440\u0442\u0438\u043D\u044B,
      \u0444\u043E\u0442\u043E\u043F\u043E\u0434\u0431\u043E\u0440\u043A\u0438 \u0438
      \u0438\u043D\u0441\u0442\u0430\u043B\u044F\u0446\u0438\u0438, \u0441 \u043A\u043E\u0442\u043E\u0440\u044B\u043C\u0438
      \u043C\u043E\u0436\u043D\u043E \u0431\u0443\u0434\u0435\u0442 \u0432\u0437\u0430\u0438\u043C\u043E\u0434\u0435\u0439\u0441\u0442\u0432\u043E\u0432\u0430\u0442\u044C.
      \r\n\r\n\u041C\u044B \u0445\u043E\u0442\u0435\u043B\u0438 \u043E\u0431\u0440\u0430\u0442\u043D\u043E
      \u0432\u043D\u0438\u043C\u0430\u043D\u0438\u0435 \u0437\u0430\u043C\u0430\u043B\u0447\u0438\u0432\u0430\u043D\u0438\u0435
      \u043F\u0440\u043E\u0431\u043B\u0435\u043C \u0436\u0435\u043D\u0449\u0438\u043D
      \u0438 \u0442\u0440\u0430\u043D\u0441\u0433\u0435\u043D\u0434\u0435\u0440\u043D\u044B\u0445
      \u043F\u0435\u0440\u0441\u043E\u043D, \u0438\u0445 \u043D\u0435\u0432\u0438\u0434\u0438\u043C\u043E\u0441\u0442\u044C
      \u0434\u043B\u044F \u043E\u0431\u0449\u0435\u0441\u0442\u0432\u0435\u043D\u043D\u043E\u0441\u0442\u0438.
      \u041D\u0430\u0437\u0432\u0430\u043D\u0438\u0435 \"Ticket to (p)ride\" - \u044D\u0442\u043E
      \u0437\u0430\u044F\u0432\u043B\u0435\u043D\u0438\u0435 \u043E \u0442\u043E\u043C,
      \u0447\u0442\u043E \u0432 \u043A\u0440\u0438\u0442\u0438\u0447\u0435\u0441\u043A\u0438\u0445
      \u0441\u0438\u0442\u0443\u0430\u0446\u0438\u044F\u0445 \u0431\u0438\u043B\u0435\u0442
      \u043D\u0430 \u0441\u043F\u0430\u0441\u0435\u043D\u0438\u0435 \u043F\u043E\u043B\u0443\u0447\u0430\u044E\u0442
      \u043D\u0435 \u0432\u0441\u0435. \r\n\u042F \u0432\u044B\u0431\u0438\u0440\u0430\u043B\u0430
      \u0441\u0435\u0440\u0434\u0446\u0435\u043C \u0438 \u0434\u0443\u0448\u043E\u0439,
      \u043B\u044E\u0434\u0435\u0439 \u0441 \u043A\u043E\u0442\u043E\u0440\u044B\u043C\u0438
      \u043C\u043D\u0435 \u0443\u0436\u0435 \u043F\u0440\u0438\u0445\u043E\u0434\u0438\u043B\u043E\u0441\u044C
      \u0440\u0430\u0431\u043E\u0442\u0430\u0442\u044C, \u0445\u0443\u0434\u043E\u0436\u043D\u0438\u043A\u043E\u0432
      \u0438 \u0445\u0443\u0434\u043E\u0436\u043D\u0438\u0446, \u043A\u043E\u0442\u043E\u0440\u044B\u0435
      \u0443\u0436\u0435 \u0443\u0432\u0435\u0440\u0435\u043D\u044B \u0432 \u0441\u0435\u0431\u0435
      \u0438 \u043A\u043E\u0442\u043E\u0440\u044B\u0435 \u0442\u043E\u043B\u044C\u043A\u043E
      \u0437\u0430\u044F\u0432\u043B\u044F\u044E\u0442 \u043E \u0442\u043E\u043C,
      \u043A\u0442\u043E \u043E\u043D\u0438 \u0435\u0441\u0442\u044C. \u0412\u0435\u0434\u044C
      \u044D\u0442\u043E \u0432\u044B\u0441\u0442\u0430\u0432\u043A\u0430 \u0438
      \u043F\u0440\u043E \u0442\u043E, \u0447\u0442\u043E \u0442\u044B \u043D\u0435
      \u0434\u043E\u043B\u0436\u0435\u043D \u0431\u043E\u044F\u0442\u044C\u0441\u044F
      \u0437\u0430\u044F\u0432\u0438\u0442\u044C \u043E \u0441\u0435\u0431\u0435
      \u0438 \u043E \u0441\u0432\u043E\u0435\u0439 \u043F\u043E\u0437\u0438\u0446\u0438\u0438
      \u0432 \u0436\u0438\u0437\u043D\u0438. \r\n  \r\n  \r\n\u041C\u0443\u0440\u043C\u0430\u043D\u0441\u043A
      \r\n\u041E\u043B\u0435\u0436\u0430 \u0423\u0440\u0437\u0438\u043A \r\n\u042F
      \u043D\u0430\u0445\u043E\u0436\u0443\u0441\u044C \u0432 \u043F\u043E\u0438\u0441\u043A\u0435.
      \u0423\u0432\u043B\u0435\u043A\u0430\u044E\u0441\u044C, \u0436\u0438\u0432\u043E\u043F\u0438\u0441\u044C\u044E,
      \u0430\u0431\u0441\u0442\u0440\u0430\u043A\u0446\u0438\u0435\u0439, \u0441\u0438\u043C\u0432\u043E\u043B\u0438\u0437\u043C\u043E\u043C,
      \u0441\u044E\u0440\u0440\u043E\u043C, \u043B\u044E\u0431\u043B\u044E \u043F\u0440\u0438\u044F\u0442\u043D\u044B\u0439
      \u043C\u0430\u0442\u0435\u0440\u0438\u0430\u043B \r\n\r\n<link=\"https://www.instagram.com/olurzik/\"><u>https://www.instagram.com/olurzik/</u></link>"
