%YAML 1.1
%TAG !u! tag:unity3d.com,2011:
--- !u!114 &11400000
MonoBehaviour:
  m_ObjectHideFlags: 0
  m_CorrespondingSourceObject: {fileID: 0}
  m_PrefabInstance: {fileID: 0}
  m_PrefabAsset: {fileID: 0}
  m_GameObject: {fileID: 0}
  m_Enabled: 1
  m_EditorHideFlags: 0
  m_Script: {fileID: 11500000, guid: 3d7b32e102d143668f748fcfcef0353e, type: 3}
  m_Name: ToveMariConfig
  m_EditorClassIdentifier: 
  serializationData:
    SerializedFormat: 2
    SerializedBytes: 
    ReferencedUnityObjects: []
    SerializedBytesString: 
    Prefab: {fileID: 0}
    PrefabModificationsReferencedUnityObjects: []
    PrefabModifications: []
    SerializationNodes:
    - Name: Name
      Entry: 7
      Data: 0|LangValueData, Assembly-CSharp
    - Name: _eng
      Entry: 1
      Data: Tove-Mari Odderdal
    - Name: _ru
      Entry: 1
      Data: "\u0422\u043E\u0432\u0435-\u041C\u0430\u0440\u0438 \u041E\u0434\u0434\u0435\u0440\u0434\u0430\u043B"
    - Name: 
      Entry: 8
      Data: 
    - Name: About
      Entry: 7
      Data: 1|OpenArtVirtualGallery.Gallery.Configs.ExhibitorConfig+AboutInfo, Assembly-CSharp
    - Name: _eng
      Entry: 1
      Data: 'THE MATRIARCH


        A collaboration project with the visual artists
        Tove-Mari Odderdal and Trine Midtlie Elmholt. They want to challenge gender
        stereotypes within faith, the curch and culture. They make statements by
        turning familiar patriarchal icons and figures into matriarchs, and making
        biblical persons non binary or switch gender. The artists have very different
        expressions in their works. In this project, they seek to create a dynamic
        by exploring with their different expressions and techniques to make a strong
        expression.'
    - Name: _ru
      Entry: 1
      Data: "\u041C\u0410\u0422\u0420\u0418\u0410\u0420\u0425\n\n\u0421\u043E\u0432\u043C\u0435\u0441\u0442\u043D\u044B\u0439
        \u043F\u0440\u043E\u0435\u043A\u0442 \u0432\u0438\u0437\u0443\u0430\u043B\u044C\u043D\u044B\u0445
        \u0445\u0443\u0434\u043E\u0436\u043D\u0438\u0446 \u0422\u0443\u0432\u0435-\u041C\u0430\u0440\u0438
        \u041E\u0434\u0434\u0435\u0440\u0434\u0430\u043B \u0438 \u0422\u0440\u0438\u043D\u0435
        \u041C\u0438\u0434\u0442\u043B\u0438 \u042D\u043B\u044C\u043C\u0445\u043E\u043B\u044C\u0442.
        \u041E\u043D\u0438 \u0445\u043E\u0442\u044F\u0442 \u0431\u0440\u043E\u0441\u0438\u0442\u044C
        \u0432\u044B\u0437\u043E\u0432 \u0433\u0435\u043D\u0434\u0435\u0440\u043D\u044B\u043C
        \u0441\u0442\u0435\u0440\u0435\u043E\u0442\u0438\u043F\u0430\u043C \u0432
        \u0432\u0435\u0440\u0435, \u0446\u0435\u0440\u043A\u0432\u0438 \u0438 \u043A\u0443\u043B\u044C\u0442\u0443\u0440\u0435.
        \u041E\u043D\u0438 \u0434\u0435\u043B\u0430\u044E\u0442 \u0437\u0430\u044F\u0432\u043B\u0435\u043D\u0438\u0435,
        \u043F\u0440\u0435\u0432\u0440\u0430\u0449\u0430\u044F \u0437\u043D\u0430\u043A\u043E\u043C\u044B\u0435
        \u043F\u0430\u0442\u0440\u0438\u0430\u0440\u0445\u0430\u043B\u044C\u043D\u044B\u0435
        \u043E\u0431\u0440\u0430\u0437\u044B \u0438 \u0444\u0438\u0433\u0443\u0440\u044B
        \u0432 \u043C\u0430\u0442\u0440\u0438\u0430\u0440\u0445\u043E\u0432 \u0438
        \u0434\u0435\u043B\u0430\u044F \u0431\u0438\u0431\u043B\u0435\u0439\u0441\u043A\u0438\u0445
        \u043F\u0435\u0440\u0441\u043E\u043D\u0430\u0436\u0435\u0439 \u043D\u0435\u0431\u0438\u043D\u0430\u0440\u043D\u044B\u043C\u0438
        \u0438\u043B\u0438 \u043C\u0435\u043D\u044F\u044F \u0438\u0445 \u0433\u0435\u043D\u0434\u0435\u0440.
        \u0425\u0443\u0434\u043E\u0436\u043D\u0438\u0446\u044B \u0438\u0441\u043F\u043E\u043B\u044C\u0437\u0443\u044E\u0442
        \u043E\u0447\u0435\u043D\u044C \u0440\u0430\u0437\u043D\u044B\u0435 \u0432\u044B\u0440\u0430\u0437\u0438\u0442\u0435\u043B\u044C\u043D\u044B\u0435
        \u0441\u0440\u0435\u0434\u0441\u0442\u0432\u0430 \u0432 \u0441\u0432\u043E\u0438\u0445
        \u0440\u0430\u0431\u043E\u0442\u0430\u0445. \u0412 \u044D\u0442\u043E\u043C
        \u043F\u0440\u043E\u0435\u043A\u0442\u0435 \u043E\u043D\u0438 \u0441\u0442\u0440\u0435\u043C\u044F\u0442\u0441\u044F
        \u0441\u043E\u0437\u0434\u0430\u0442\u044C \u0434\u0438\u043D\u0430\u043C\u0438\u043A\u0443,
        \u0438\u0441\u0441\u043B\u0435\u0434\u0443\u044F \u0441\u0432\u043E\u0438
        \u0440\u0430\u0437\u043B\u0438\u0447\u043D\u044B\u0435 \u0432\u044B\u0440\u0430\u0437\u0438\u0442\u0435\u043B\u044C\u043D\u044B\u0435
        \u0441\u0440\u0435\u0434\u0441\u0442\u0432\u0430 \u0438 \u0442\u0435\u0445\u043D\u0438\u043A\u0438,
        \u0447\u0442\u043E\u0431\u044B \u0441\u043E\u0437\u0434\u0430\u0442\u044C
        \u0441\u0438\u043B\u044C\u043D\u043E\u0435 \u0432\u043F\u0435\u0447\u0430\u0442\u043B\u0435\u043D\u0438\u0435."
    - Name: 
      Entry: 8
      Data: 
    - Name: Links
      Entry: 7
      Data: 2|OpenArtVirtualGallery.Gallery.Configs.ExhibitorConfig+LinkData[], Assembly-CSharp
    - Name: 
      Entry: 12
      Data: 1
    - Name: 
      Entry: 7
      Data: OpenArtVirtualGallery.Gallery.Configs.ExhibitorConfig+LinkData, Assembly-CSharp
    - Name: CommentBefore
      Entry: 6
      Data: 
    - Name: URL
      Entry: 1
      Data: 
    - Name: 
      Entry: 8
      Data: 
    - Name: 
      Entry: 13
      Data: 
    - Name: 
      Entry: 8
      Data: 
    - Name: Media
      Entry: 7
      Data: OpenArtVirtualGallery.Gallery.Configs.ExhibitorConfig+MediaData, Assembly-CSharp
    - Name: Audio
      Entry: 7
      Data: 3|UnityEngine.AudioClip[], UnityEngine.AudioModule
    - Name: 
      Entry: 12
      Data: 0
    - Name: 
      Entry: 13
      Data: 
    - Name: 
      Entry: 8
      Data: 
    - Name: Videos
      Entry: 7
      Data: 4|System.String[], mscorlib
    - Name: 
      Entry: 12
      Data: 0
    - Name: 
      Entry: 13
      Data: 
    - Name: 
      Entry: 8
      Data: 
    - Name: ArtVideos
      Entry: 6
      Data: 
    - Name: 
      Entry: 8
      Data: 
