%YAML 1.1
%TAG !u! tag:unity3d.com,2011:
--- !u!114 &11400000
MonoBehaviour:
  m_ObjectHideFlags: 0
  m_CorrespondingSourceObject: {fileID: 0}
  m_PrefabInstance: {fileID: 0}
  m_PrefabAsset: {fileID: 0}
  m_GameObject: {fileID: 0}
  m_Enabled: 1
  m_EditorHideFlags: 0
  m_Script: {fileID: 11500000, guid: 3d7b32e102d143668f748fcfcef0353e, type: 3}
  m_Name: Eva
  m_EditorClassIdentifier: 
  serializationData:
    SerializedFormat: 2
    SerializedBytes: 
    ReferencedUnityObjects: []
    SerializedBytesString: 
    Prefab: {fileID: 0}
    PrefabModificationsReferencedUnityObjects: []
    PrefabModifications: []
    SerializationNodes:
    - Name: Name
      Entry: 7
      Data: 0|LangValueData, Assembly-CSharp
    - Name: _eng
      Entry: 1
      Data: Eva
    - Name: _ru
      Entry: 1
      Data: "\u0415\u0432\u0430"
    - Name: 
      Entry: 8
      Data: 
    - Name: About
      Entry: 7
      Data: 1|OpenArtVirtualGallery.Gallery.Configs.ExhibitorConfig+AboutInfo, Assembly-CSharp
    - Name: _eng
      Entry: 1
      Data: "My name is Eva. \nI am a teacher of Arts and Applioed Arts, at this
        stage of my life I work in my specialty at a Dagestan rural school. Photography
        is my hobby, just like embroidery/sewing/stitching. I am a closed person,
        just like the poses of the girls in the photos shown, and the easiest way
        for me to speak is through the art that I create."
    - Name: _ru
      Entry: 1
      Data: "\u041C\u0435\u043D\u044F \u0437\u043E\u0432\u0443\u0442 \u0415\u0432\u0430\r.\n\u042F
        \u043F\u0435\u0434\u0430\u0433\u043E\u0433 \u0418\u0437\u043E \u0438 \u0414\u041F\u0418,
        \u043D\u0430 \u0434\u0430\u043D\u043D\u043E\u043C \u044D\u0442\u0430\u043F\u0435
        \u0436\u0438\u0437\u043D\u0438 \u044F \u0440\u0430\u0431\u043E\u0442\u0430\u044E
        \u043F\u043E \u0441\u0432\u043E\u0435\u0439 \u0441\u043F\u0435\u0446\u0438\u0430\u043B\u044C\u043D\u043E\u0441\u0442\u0438
        \u0432 \u0414\u0430\u0433\u0435\u0441\u0442\u0430\u043D\u0441\u043A\u043E\u0439
        \u0441\u0435\u043B\u044C\u0441\u043A\u043E\u0439 \u0448\u043A\u043E\u043B\u0435.\r\n\u0424\u043E\u0442\u043E\u0433\u0440\u0430\u0444\u0438\u044F
        \u2013 \u044D\u0442\u043E \u043C\u043E\u0451 \u0445\u043E\u0431\u0431\u0438
        \u0442\u0430\u043A \u0436\u0435, \u043A\u0430\u043A \u0438 \u0432\u044B\u0448\u0438\u0432\u043A\u0430/\u0448\u0438\u0442\u044C\u0435/\u043B\u0435\u043F\u043A\u0430.
        \u042F\u0432\u043B\u044F\u044E\u0441\u044C \u0442\u0430\u043A\u0438\u043C 
        \u0436\u0435 \u0437\u0430\u043A\u0440\u044B\u0442\u044B\u043C \u0447\u0435\u043B\u043E\u0432\u0435\u043A\u043E\u043C,
        \u043A\u0430\u043A \u0438 \u043F\u043E\u0437\u044B \u0434\u0435\u0432\u0443\u0448\u0435\u043A
        \u043D\u0430 \u043F\u043E\u043A\u0430\u0437\u0430\u043D\u043D\u044B\u0445
        \u0444\u043E\u0442\u043E\u0433\u0440\u0430\u0444\u0438\u044F\u0445, \u043B\u0435\u0433\u0447\u0435
        \u0432\u0441\u0435\u0433\u043E \u043C\u043D\u0435 \u0443\u0434\u0430\u0435\u0442\u0441\u044F
        \u0433\u043E\u0432\u043E\u0440\u0438\u0442\u044C \u0447\u0435\u0440\u0435\u0437
        \u0438\u0441\u043A\u0443\u0441\u0441\u0442\u0432\u043E, \u043A\u043E\u0442\u043E\u0440\u043E\u0435
        \u044F \u0441\u043E\u0437\u0434\u0430\u044E."
    - Name: 
      Entry: 8
      Data: 
    - Name: Links
      Entry: 7
      Data: 2|OpenArtVirtualGallery.Gallery.Configs.ExhibitorConfig+LinkData[], Assembly-CSharp
    - Name: 
      Entry: 12
      Data: 0
    - Name: 
      Entry: 13
      Data: 
    - Name: 
      Entry: 8
      Data: 
    - Name: Media
      Entry: 7
      Data: OpenArtVirtualGallery.Gallery.Configs.ExhibitorConfig+MediaData, Assembly-CSharp
    - Name: Audio
      Entry: 7
      Data: 3|UnityEngine.AudioClip[], UnityEngine.AudioModule
    - Name: 
      Entry: 12
      Data: 0
    - Name: 
      Entry: 13
      Data: 
    - Name: 
      Entry: 8
      Data: 
    - Name: Videos
      Entry: 7
      Data: 4|System.String[], mscorlib
    - Name: 
      Entry: 12
      Data: 0
    - Name: 
      Entry: 13
      Data: 
    - Name: 
      Entry: 8
      Data: 
    - Name: ArtVideos
      Entry: 6
      Data: 
    - Name: 
      Entry: 8
      Data: 
