%YAML 1.1
%TAG !u! tag:unity3d.com,2011:
--- !u!114 &11400000
MonoBehaviour:
  m_ObjectHideFlags: 0
  m_CorrespondingSourceObject: {fileID: 0}
  m_PrefabInstance: {fileID: 0}
  m_PrefabAsset: {fileID: 0}
  m_GameObject: {fileID: 0}
  m_Enabled: 1
  m_EditorHideFlags: 0
  m_Script: {fileID: 11500000, guid: 3d7b32e102d143668f748fcfcef0353e, type: 3}
  m_Name: OHAN_BREIDING
  m_EditorClassIdentifier: 
  serializationData:
    SerializedFormat: 2
    SerializedBytes: 
    ReferencedUnityObjects: []
    SerializedBytesString: 
    Prefab: {fileID: 0}
    PrefabModificationsReferencedUnityObjects: []
    PrefabModifications: []
    SerializationNodes:
    - Name: Name
      Entry: 7
      Data: 0|LangValueData, Assembly-CSharp
    - Name: _eng
      Entry: 1
      Data: OHAN BREIDING
    - Name: _ru
      Entry: 1
      Data: "\u041E\u0425\u0410\u041D \u0411\u0420\u0415\u0419\u0414\u0418\u041D\u0413"
    - Name: 
      Entry: 8
      Data: 
    - Name: About
      Entry: 7
      Data: 1|OpenArtVirtualGallery.Gallery.Configs.ExhibitorConfig+AboutInfo, Assembly-CSharp
    - Name: _eng
      Entry: 1
      Data: "I got into photography when I was studying at the Glasgow School of
        Art in Scotland. I looked out of my window and saw Heather, who\u2019s now
        one of my closest friends. I thought, Who\u2019s that hot queer with a medium-format
        camera? She taught me how to use a Hasselblad. We\u2019d go into these abandoned
        buildings and take photos of one another doing performative acts, inspired
        by Claude Cahun and Francesca Woodman. Using the lens to create a sense of
        intimacy quickly became my medium.\r\n\nQueer Still Life Series (Ongoing)\r\n\nThis
        series of traditionally constructed still life photographs reconsider the
        dinner table\u2019s role as a space of representation, exchanging familiar
        objects with their deviant others where butter becomes Crisco, basketball
        are inverted, and an hourglass loses its sand. By simultaneously using some
        of the traditional tropes of historical still life painting, I am also queering
        these table top spaces by photographically depicting untraditional objects,
        introducing bodies or removing the table top altogether. The project explores
        gendered, raced and classed self-representation through the erotic and the
        performative.\r\n"
    - Name: _ru
      Entry: 1
      Data: "\u042F \u0443\u0432\u043B\u0435\u043A\u0441\u044F \u0444\u043E\u0442\u043E\u0433\u0440\u0430\u0444\u0438\u0435\u0439,
        \u043A\u043E\u0433\u0434\u0430 \u0443\u0447\u0438\u043B\u0441\u044F \u0432
        \u0428\u043A\u043E\u043B\u0435 \u0418\u0441\u043A\u0443\u0441\u0441\u0442\u0432
        \u0413\u043B\u0430\u0437\u0433\u043E \u0432 \u0428\u043E\u0442\u043B\u0430\u043D\u0434\u0438\u0438.
        \u042F \u0432\u044B\u0433\u043B\u044F\u043D\u0443\u043B \u0438\u0437 \u043E\u043A\u043D\u0430
        \u0438 \u0443\u0432\u0438\u0434\u0435\u043B \u0425\u0438\u0437\u0435\u0440,
        \u043A\u043E\u0442\u043E\u0440\u0430\u044F \u0442\u0435\u043F\u0435\u0440\u044C
        \u043E\u0434\u043D\u0430 \u0438\u0437 \u043C\u043E\u0438\u0445 \u0441\u0430\u043C\u044B\u0445
        \u0431\u043B\u0438\u0437\u043A\u0438\u0445 \u043F\u043E\u0434\u0440\u0443\u0433.
        \u042F \u043F\u043E\u0434\u0443\u043C\u0430\u043B: \xAB\u041A\u0442\u043E
        \u044D\u0442\u0430 \u0441\u0435\u043A\u0441\u0430\u043F\u0438\u043B\u044C\u043D\u0430\u044F
        \u043A*** \u0441 \u043A\u0430\u043C\u0435\u0440\u043E\u0439 \u0441\u0440\u0435\u0434\u043D\u0435\u0433\u043E
        \u0444\u043E\u0440\u043C\u0430\u0442\u0430?\xBB \u041E\u043D\u0430 \u043D\u0430\u0443\u0447\u0438\u043B\u0430
        \u043C\u0435\u043D\u044F \u043F\u043E\u043B\u044C\u0437\u043E\u0432\u0430\u0442\u044C\u0441\u044F
        Hasselblad. \u041C\u044B \u0437\u0430\u0431\u0440\u0435\u0434\u0430\u043B\u0438
        \u0432 \u044D\u0442\u0438 \u0437\u0430\u0431\u0440\u043E\u0448\u0435\u043D\u043D\u044B\u0435
        \u0437\u0434\u0430\u043D\u0438\u044F \u0438 \u0444\u043E\u0442\u043E\u0433\u0440\u0430\u0444\u0438\u0440\u043E\u0432\u0430\u043B\u0438
        \u0434\u0440\u0443\u0433 \u0434\u0440\u0443\u0433\u0430 \u0434\u0435\u043B\u0430\u044E\u0449\u0438\u0445
        \u043F\u0435\u0440\u0444\u043E\u0440\u043C\u0430\u043D\u0441\u044B, \u0432\u0434\u043E\u0445\u043D\u043E\u0432\u043B\u0435\u043D\u043D\u044B\u0435
        \u041A\u043B\u043E\u0434\u043E\u043C \u041A\u0430\u0443\u043D\u043E\u043C
        \u0438 \u0424\u0440\u0430\u043D\u0447\u0435\u0441\u043A\u043E\u0439 \u0412\u0443\u0434\u043C\u0430\u043D.
        \u0418\u0441\u043F\u043E\u043B\u044C\u0437\u043E\u0432\u0430\u043D\u0438\u0435
        \u043E\u0431\u044A\u0435\u043A\u0442\u0438\u0432\u0430 \u0434\u043B\u044F
        \u0441\u043E\u0437\u0434\u0430\u043D\u0438\u044F \u043E\u0449\u0443\u0449\u0435\u043D\u0438\u044F
        \u0431\u043B\u0438\u0437\u043E\u0441\u0442\u0438 \u0431\u044B\u0441\u0442\u0440\u043E
        \u0441\u0442\u0430\u043B\u043E \u043C\u043E\u0435\u0439 \u0445\u0443\u0434\u043E\u0436\u0435\u0441\u0442\u0432\u0435\u043D\u043D\u043E\u0439
        \u0441\u0440\u0435\u0434\u043E\u0439.\r\n\n\u0421\u0435\u0440\u0438\u044F
        \xAB\u041A***-\u043D\u0430\u0442\u044E\u0440\u043C\u043E\u0440\u0442\u044B\xBB
        (\u043F\u0440\u043E\u0434\u043E\u043B\u0436\u0430\u0435\u0442\u0441\u044F)\r\n\n\u042D\u0442\u0430
        \u0441\u0435\u0440\u0438\u044F \u0442\u0440\u0430\u0434\u0438\u0446\u0438\u043E\u043D\u043D\u043E
        \u0441\u043E\u0437\u0434\u0430\u043D\u043D\u044B\u0445 \u043D\u0430\u0442\u044E\u0440\u043C\u043E\u0440\u0442\u043E\u0432
        \u043F\u0435\u0440\u0435\u0441\u043C\u0430\u0442\u0440\u0438\u0432\u0430\u0435\u0442
        \u0440\u043E\u043B\u044C \u043E\u0431\u0435\u0434\u0435\u043D\u043D\u043E\u0433\u043E
        \u0441\u0442\u043E\u043B\u0430 \u043A\u0430\u043A \u043F\u0440\u043E\u0441\u0442\u0440\u0430\u043D\u0441\u0442\u0432\u0430
        \u0440\u0435\u043F\u0440\u0435\u0437\u0435\u043D\u0442\u0430\u0446\u0438\u0438,
        \u0437\u0430\u043C\u0435\u043D\u044F\u044F \u0437\u043D\u0430\u043A\u043E\u043C\u044B\u0435
        \u043F\u0440\u0435\u0434\u043C\u0435\u0442\u044B \u0438\u0445 \u0434\u0435\u0432\u0438\u0430\u0446\u0438\u044F\u043C\u0438,
        \u0433\u0434\u0435 \u043C\u0430\u0441\u043B\u043E \u0441\u0442\u0430\u043D\u043E\u0432\u0438\u0442\u0441\u044F
        \u041A\u0440\u0438\u0441\u043A\u043E, \u0431\u0430\u0441\u043A\u0435\u0442\u0431\u043E\u043B\u044C\u043D\u044B\u0439
        \u043C\u044F\u0447 \u0432\u044B\u0432\u043E\u0440\u043E\u0447\u0435\u043D
        \u043D\u0430\u0438\u0437\u043D\u0430\u043D\u043A\u0443, \u0430 \u043F\u0435\u0441\u043E\u0447\u043D\u044B\u0435
        \u0447\u0430\u0441\u044B \u0441\u0442\u043E\u044F\u0442 \u0431\u0435\u0437
        \u043F\u0435\u0441\u043A\u0430. \u041E\u0434\u043D\u043E\u0432\u0440\u0435\u043C\u0435\u043D\u043D\u043E
        \u0438\u0441\u043F\u043E\u043B\u044C\u0437\u0443\u044F \u043D\u0435\u043A\u043E\u0442\u043E\u0440\u044B\u0435
        \u0442\u0440\u0430\u0434\u0438\u0446\u0438\u043E\u043D\u043D\u044B\u0435
        \u043F\u0440\u0438\u0435\u043C\u044B \u0438\u0441\u0442\u043E\u0440\u0438\u0447\u0435\u0441\u043A\u043E\u0433\u043E
        \u043D\u0430\u0442\u044E\u0440\u043C\u043E\u0440\u0442\u0430, \u044F \u0442\u0430\u043A\u0436\u0435
        \u043F\u0440\u0438\u0434\u0430\u044E \u043A***\u043D\u043E\u0441\u0442\u044C
        \u043F\u0440\u043E\u0441\u0442\u0440\u0430\u043D\u0441\u0442\u0432\u0443
        \u043D\u0430 \u0441\u0442\u043E\u043B\u0430\u0445, \u0444\u043E\u0442\u043E\u0433\u0440\u0430\u0444\u0438\u0447\u0435\u0441\u043A\u0438
        \u0438\u0437\u043E\u0431\u0440\u0430\u0436\u0430\u044F \u043D\u0435\u0442\u0440\u0430\u0434\u0438\u0446\u0438\u043E\u043D\u043D\u044B\u0435
        \u043E\u0431\u044A\u0435\u043A\u0442\u044B, \u0432\u0432\u043E\u0434\u044F
        \u0442\u0435\u043B\u0430, \u0438\u043B\u0438 \u0432\u043E\u043E\u0431\u0449\u0435
        \u0443\u0434\u0430\u043B\u044F\u044F \u0441\u0442\u043E\u043B\u0435\u0448\u043D\u0438\u0446\u0443.
        \u041F\u0440\u043E\u0435\u043A\u0442 \u0438\u0441\u0441\u043B\u0435\u0434\u0443\u0435\u0442
        \u0433\u0435\u043D\u0434\u0435\u0440\u043D\u0443\u044E, \u0440\u0430\u0441\u043E\u0432\u0443\u044E
        \u0438 \u043A\u043B\u0430\u0441\u0441\u043E\u0432\u0443\u044E \u0441\u0430\u043C\u043E\u0440\u0435\u043F\u0440\u0435\u0437\u0435\u043D\u0442\u0430\u0446\u0438\u044E
        \u0447\u0435\u0440\u0435\u0437 \u044D\u0440\u043E\u0442\u0438\u043A\u0443
        \u0438 \u043F\u0435\u0440\u0444\u043E\u0440\u043C\u0430\u0442\u0438\u0432.\r\n"
    - Name: 
      Entry: 8
      Data: 
    - Name: Links
      Entry: 7
      Data: 2|OpenArtVirtualGallery.Gallery.Configs.ExhibitorConfig+LinkData[], Assembly-CSharp
    - Name: 
      Entry: 12
      Data: 0
    - Name: 
      Entry: 13
      Data: 
    - Name: 
      Entry: 8
      Data: 
    - Name: Media
      Entry: 7
      Data: OpenArtVirtualGallery.Gallery.Configs.ExhibitorConfig+MediaData, Assembly-CSharp
    - Name: Audio
      Entry: 7
      Data: 3|UnityEngine.AudioClip[], UnityEngine.AudioModule
    - Name: 
      Entry: 12
      Data: 0
    - Name: 
      Entry: 13
      Data: 
    - Name: 
      Entry: 8
      Data: 
    - Name: Videos
      Entry: 7
      Data: 4|System.String[], mscorlib
    - Name: 
      Entry: 12
      Data: 0
    - Name: 
      Entry: 13
      Data: 
    - Name: 
      Entry: 8
      Data: 
    - Name: ArtVideos
      Entry: 6
      Data: 
    - Name: 
      Entry: 8
      Data: 
